test/bus/xor/mips_cpu_bus_tb.vcd
$date
	Thu Dec  9 15:47:04 2021
$end
$version
	Icarus Verilog
$end
$timescale
	1s
$end
$scope module xor_0 $end
$scope module TB $end
$var wire 32 ! writedata [31:0] $end
$var wire 1 " write $end
$var wire 32 # register_v0 [31:0] $end
$var wire 1 $ read $end
$var wire 10 % ram_byte_aligned_addr [9:0] $end
$var wire 4 & byteenable [3:0] $end
$var wire 32 ' address [31:0] $end
$var wire 1 ( active $end
$var reg 1 ) clk $end
$var reg 32 * readdata [31:0] $end
$var reg 1 + reset $end
$var reg 1 , waitrequest $end
$scope module dut $end
$var wire 1 ) clk $end
$var wire 32 - readdata [31:0] $end
$var wire 1 + reset $end
$var wire 1 . stall $end
$var wire 1 / valid_data $end
$var wire 1 , waitrequest $end
$var wire 32 0 writedata [31:0] $end
$var wire 1 " write $end
$var wire 1 1 state $end
$var wire 5 2 shamt [4:0] $end
$var wire 5 3 rt [4:0] $end
$var wire 5 4 rs [4:0] $end
$var wire 32 5 register_v0 [31:0] $end
$var wire 32 6 read_data_0 [31:0] $end
$var wire 1 $ read $end
$var wire 5 7 rd [4:0] $end
$var wire 6 8 opcode [5:0] $end
$var wire 32 9 instr_address [31:0] $end
$var wire 1 : finish $end
$var wire 32 ; data_writeaddr [31:0] $end
$var wire 32 < data_readaddr [31:0] $end
$var wire 4 = byteenable [3:0] $end
$var wire 16 > alu_immediate [15:0] $end
$var wire 1 ? Z $end
$var wire 1 @ Xor $end
$var wire 1 A WriteLo $end
$var wire 1 B WriteHi $end
$var wire 1 C Unsigned $end
$var wire 1 D Sub $end
$var wire 1 E ShiftAmt $end
$var wire 1 F SR $end
$var wire 1 G SL $end
$var wire 1 H RegWrite $end
$var wire 1 I RegDst $end
$var wire 1 J ReadLo $end
$var wire 1 K ReadHi $end
$var wire 1 L Or $end
$var wire 1 M N $end
$var wire 1 N Mul $end
$var wire 1 O MemtoReg $end
$var wire 1 P LUI $end
$var wire 1 Q EQ $end
$var wire 1 R Div $end
$var wire 1 S Boolean $end
$var wire 1 T B_link $end
$var wire 1 U Arithmetic $end
$var wire 1 V And $end
$var wire 1 W Add $end
$var wire 1 X ALUSrc $end
$var reg 1 ( active $end
$var reg 32 Y address [31:0] $end
$var reg 1 Z read_prev $end
$var reg 1 [ stall_prev $end
$scope module controlpath_block $end
$var wire 1 ) clk $end
$var wire 32 \ instr_readdata [31:0] $end
$var wire 1 + reset $end
$var wire 1 . stall $end
$var wire 1 1 state $end
$var wire 5 ] special_branch_codes [4:0] $end
$var wire 5 ^ shamt [4:0] $end
$var wire 5 _ rt [4:0] $end
$var wire 5 ` rs [4:0] $end
$var wire 32 a read_data_0 [31:0] $end
$var wire 5 b rd [4:0] $end
$var wire 32 c instruction_word [31:0] $end
$var wire 6 d instruction_opcode [5:0] $end
$var wire 32 e instr_address [31:0] $end
$var wire 6 f func_code [5:0] $end
$var wire 1 : finish $end
$var wire 16 g alu_immediate [15:0] $end
$var wire 1 ? Z $end
$var wire 1 @ Xor $end
$var wire 1 A WriteLo $end
$var wire 1 B WriteHi $end
$var wire 1 C Unsigned $end
$var wire 1 D Sub $end
$var wire 1 E ShiftAmt $end
$var wire 1 F SR $end
$var wire 1 G SL $end
$var wire 1 H RegWrite $end
$var wire 1 I RegDst $end
$var wire 1 J ReadLo $end
$var wire 1 K ReadHi $end
$var wire 1 L Or $end
$var wire 1 M N $end
$var wire 1 N Mul $end
$var wire 1 O MemtoReg $end
$var wire 1 " MemWrite $end
$var wire 1 $ MemRead $end
$var wire 1 P LUI $end
$var wire 1 Q EQ $end
$var wire 1 R Div $end
$var wire 1 S Boolean $end
$var wire 1 T B_link $end
$var wire 1 U Arithmetic $end
$var wire 1 V And $end
$var wire 1 W Add $end
$var wire 1 X ALUSrc $end
$scope module control_block $end
$var wire 1 1 state $end
$var wire 5 h special_branch_codes [4:0] $end
$var wire 6 i instruction_opcode [5:0] $end
$var wire 6 j func_code [5:0] $end
$var wire 1 T B_link $end
$var reg 1 X ALUSrc $end
$var reg 1 W Add $end
$var reg 1 V And $end
$var reg 1 U Arithmetic $end
$var reg 1 S Boolean $end
$var reg 1 R Div $end
$var reg 1 k LI $end
$var reg 1 P LUI $end
$var reg 1 $ MemRead $end
$var reg 1 " MemWrite $end
$var reg 1 O MemtoReg $end
$var reg 1 N Mul $end
$var reg 1 L Or $end
$var reg 1 K ReadHi $end
$var reg 1 J ReadLo $end
$var reg 1 I RegDst $end
$var reg 1 H RegWrite $end
$var reg 1 G SL $end
$var reg 1 F SR $end
$var reg 1 E ShiftAmt $end
$var reg 1 D Sub $end
$var reg 1 C Unsigned $end
$var reg 1 B WriteHi $end
$var reg 1 A WriteLo $end
$var reg 1 @ Xor $end
$upscope $end
$scope module ir_block $end
$var wire 1 ) clk $end
$var wire 32 l read_data [31:0] $end
$var wire 1 . stall $end
$var wire 1 1 state $end
$var reg 16 m alu_immediate [15:0] $end
$var reg 6 n func_code [5:0] $end
$var reg 6 o instruction_opcode [5:0] $end
$var reg 32 p instruction_word [31:0] $end
$var reg 32 q ir_hold [31:0] $end
$var reg 5 r rd [4:0] $end
$var reg 5 s rs [4:0] $end
$var reg 5 t rt [4:0] $end
$var reg 5 u shamt [4:0] $end
$var reg 5 v special_branch_codes [4:0] $end
$var reg 1 w stall_prev $end
$upscope $end
$scope module pc_block $end
$var wire 1 ) clk $end
$var wire 32 x instruction_word [31:0] $end
$var wire 1 + reset $end
$var wire 1 . stall $end
$var wire 1 1 state $end
$var wire 32 y read_data_0 [31:0] $end
$var wire 2 z jump_addr_selection [1:0] $end
$var wire 1 ? Z $end
$var wire 1 M N $end
$var wire 1 Q EQ $end
$var wire 1 T B_link $end
$var reg 32 { addr [31:0] $end
$var reg 32 | addr_next [31:0] $end
$var reg 1 : finish $end
$var reg 32 } instruction_word_prev [31:0] $end
$var reg 32 ~ read_data_0_prev [31:0] $end
$scope module branch_controlblock $end
$var wire 1 ) clk $end
$var wire 32 !" instruction_word [31:0] $end
$var wire 1 . stall $end
$var wire 1 1 state $end
$var wire 1 ? Z $end
$var wire 1 M N $end
$var wire 1 Q EQ $end
$var reg 1 T B_link $end
$var reg 2 "" jump_addr_selection [1:0] $end
$var reg 2 #" jump_addr_selection_next [1:0] $end
$upscope $end
$upscope $end
$scope module statemachine_block $end
$var wire 1 ) clk $end
$var wire 1 + reset $end
$var wire 1 . stall $end
$var wire 1 $" state_next $end
$var reg 1 1 state $end
$upscope $end
$upscope $end
$scope module datapath_block $end
$var wire 1 X ALUSrc $end
$var wire 1 W Add $end
$var wire 1 V And $end
$var wire 1 U Arithmetic $end
$var wire 1 T B_link $end
$var wire 1 S Boolean $end
$var wire 1 R Div $end
$var wire 1 P LUI $end
$var wire 1 O MemtoReg $end
$var wire 1 N Mul $end
$var wire 1 L Or $end
$var wire 1 K ReadHi $end
$var wire 1 J ReadLo $end
$var wire 1 I RegDst $end
$var wire 1 H RegWrite $end
$var wire 1 %" SH $end
$var wire 1 G SL $end
$var wire 1 F SR $end
$var wire 1 E ShiftAmt $end
$var wire 1 D Sub $end
$var wire 1 C Unsigned $end
$var wire 1 B WriteHi $end
$var wire 1 A WriteLo $end
$var wire 1 @ Xor $end
$var wire 16 &" alu_immediate [15:0] $end
$var wire 1 ) clk $end
$var wire 32 '" data_readdata [31:0] $end
$var wire 32 (" instr_address [31:0] $end
$var wire 6 )" opcode [5:0] $end
$var wire 5 *" rd [4:0] $end
$var wire 1 + reset $end
$var wire 5 +" rs [4:0] $end
$var wire 5 ," rt [4:0] $end
$var wire 5 -" shamt [4:0] $end
$var wire 1 1 state $end
$var wire 1 / valid_data $end
$var wire 32 ." register_v0 [31:0] $end
$var wire 1 /" regfile_wen $end
$var wire 32 0" read_data_1 [31:0] $end
$var wire 32 1" read_data_0 [31:0] $end
$var wire 5 2" read_addr_1 [4:0] $end
$var wire 5 3" read_addr_0 [4:0] $end
$var wire 32 4" alu_out [31:0] $end
$var wire 1 ? Z $end
$var wire 1 M N $end
$var wire 1 Q EQ $end
$var reg 4 5" byteenable [3:0] $end
$var reg 32 6" data_readaddr [31:0] $end
$var reg 32 7" data_writeaddr [31:0] $end
$var reg 32 8" data_writedata [31:0] $end
$var reg 32 9" load_data [31:0] $end
$var reg 32 :" op2 [31:0] $end
$var reg 5 ;" write_addr [4:0] $end
$var reg 32 <" write_data [31:0] $end
$scope module alu_block $end
$var wire 1 W Add $end
$var wire 1 V And $end
$var wire 1 U Arithmetic $end
$var wire 1 S Boolean $end
$var wire 1 R Div $end
$var wire 1 P LUI $end
$var wire 1 N Mul $end
$var wire 1 L Or $end
$var wire 1 K ReadHi $end
$var wire 1 J ReadLo $end
$var wire 1 G Sl $end
$var wire 1 F Sr $end
$var wire 1 D Sub $end
$var wire 1 C Unsigned $end
$var wire 1 B WriteHi $end
$var wire 1 A WriteLo $end
$var wire 1 @ Xor $end
$var wire 1 ) clk $end
$var wire 32 =" op1_s [31:0] $end
$var wire 32 >" op2 [31:0] $end
$var wire 32 ?" op2_s [31:0] $end
$var wire 1 + reset $end
$var wire 32 @" op1 [31:0] $end
$var wire 64 A" multiplied [63:0] $end
$var reg 32 B" alu_out [31:0] $end
$var reg 1 Q eq $end
$var reg 32 C" hi [31:0] $end
$var reg 32 D" lo [31:0] $end
$var reg 1 M n $end
$var reg 1 ? z $end
$upscope $end
$scope module regfile_block $end
$var wire 1 ) clk $end
$var wire 32 E" r0 [31:0] $end
$var wire 32 F" r1 [31:0] $end
$var wire 32 G" r10 [31:0] $end
$var wire 32 H" r11 [31:0] $end
$var wire 32 I" r12 [31:0] $end
$var wire 32 J" r13 [31:0] $end
$var wire 32 K" r14 [31:0] $end
$var wire 32 L" r15 [31:0] $end
$var wire 32 M" r16 [31:0] $end
$var wire 32 N" r17 [31:0] $end
$var wire 32 O" r18 [31:0] $end
$var wire 32 P" r19 [31:0] $end
$var wire 32 Q" r2 [31:0] $end
$var wire 32 R" r20 [31:0] $end
$var wire 32 S" r21 [31:0] $end
$var wire 32 T" r22 [31:0] $end
$var wire 32 U" r23 [31:0] $end
$var wire 32 V" r24 [31:0] $end
$var wire 32 W" r25 [31:0] $end
$var wire 32 X" r26 [31:0] $end
$var wire 32 Y" r27 [31:0] $end
$var wire 32 Z" r28 [31:0] $end
$var wire 32 [" r29 [31:0] $end
$var wire 32 \" r3 [31:0] $end
$var wire 32 ]" r30 [31:0] $end
$var wire 32 ^" r31 [31:0] $end
$var wire 32 _" r4 [31:0] $end
$var wire 32 `" r5 [31:0] $end
$var wire 32 a" r6 [31:0] $end
$var wire 32 b" r7 [31:0] $end
$var wire 32 c" r8 [31:0] $end
$var wire 32 d" r9 [31:0] $end
$var wire 5 e" read_addr_0 [4:0] $end
$var wire 5 f" read_addr_1 [4:0] $end
$var wire 32 g" register_v0 [31:0] $end
$var wire 1 + reset $end
$var wire 1 /" wen $end
$var wire 5 h" write_addr [4:0] $end
$var wire 32 i" write_data [31:0] $end
$var reg 32 j" read_data_0 [31:0] $end
$var reg 32 k" read_data_1 [31:0] $end
$scope begin $ivl_for_loop2 $end
$var integer 32 l" i [31:0] $end
$upscope $end
$upscope $end
$upscope $end
$upscope $end
$scope begin $ivl_for_loop0 $end
$var integer 32 m" i [31:0] $end
$upscope $end
$scope begin $ivl_for_loop1 $end
$var integer 32 n" i [31:0] $end
$upscope $end
$upscope $end
$upscope $end
$enddefinitions $end
#0
$dumpvars
b100000000 n"
b100000000 m"
bx l"
bx k"
bx j"
bx i"
bx h"
bx g"
bx f"
bx e"
bx d"
bx c"
bx b"
bx a"
bx `"
bx _"
bx ^"
bx ]"
bx \"
bx ["
bx Z"
bx Y"
bx X"
bx W"
bx V"
bx U"
bx T"
bx S"
bx R"
bx Q"
bx P"
bx O"
bx N"
bx M"
bx L"
bx K"
bx J"
bx I"
bx H"
bx G"
bx F"
bx E"
bx D"
bx C"
bx B"
bx A"
bx @"
bx ?"
bx >"
bx ="
bx <"
bx ;"
bx :"
bx 9"
bx 8"
bx 7"
bx 6"
bx 5"
bx 4"
bx 3"
bx 2"
bx 1"
bx 0"
0/"
bx ."
bx -"
bx ,"
bx +"
bx *"
bx )"
bx ("
bx '"
bx &"
0%"
x$"
b0 #"
bx ""
bx !"
bx ~
bx }
bx |
bx {
bx z
bx y
bx x
xw
bx v
bx u
bx t
bx s
bx r
bx q
bx p
bx o
bx n
bx m
bx l
0k
bx j
bx i
bx h
bx g
bx f
bx e
bx d
bx c
bx b
bx a
bx `
bx _
bx ^
bx ]
bx \
x[
xZ
bx Y
0X
0W
0V
0U
0T
0S
0R
0Q
0P
0O
0N
0M
0L
0K
0J
0I
0H
0G
0F
0E
0D
0C
0B
0A
0@
0?
bx >
bx =
bx <
bx ;
0:
bx 9
bx 8
bx 7
bx 6
bx 5
bx 4
bx 3
bx 2
x1
bx 0
x/
0.
bx -
0,
0+
bx *
0)
x(
bx '
bx &
bx %
0$
bx #
0"
bx !
$end
#2
0/
0w
0Z
0[
1)
#4
1+
0)
#6
bx #"
b0 %
1.
b10111111110000000000000000000000 |
0$"
b10111111110000000000000000000000 '
b10111111110000000000000000000000 Y
1$
b1111 &
b1111 =
b1111 5"
b0 ^"
b0 ]"
b0 ["
b0 Z"
b0 Y"
b0 X"
b0 W"
b0 V"
b0 U"
b0 T"
b0 S"
b0 R"
b0 P"
b0 O"
b0 N"
b0 M"
b0 L"
b0 K"
b0 J"
b0 I"
b0 H"
b0 G"
b0 d"
b0 c"
b0 b"
b0 a"
b0 `"
b0 _"
b0 \"
b0 #
b0 5
b0 ."
b0 g"
b0 Q"
b0 F"
b0 E"
1(
b0 D"
b0 C"
b10111111110000000000000000000000 9
b10111111110000000000000000000000 e
b10111111110000000000000000000000 {
b10111111110000000000000000000000 ("
01
b100000 l"
1,
1)
#8
0+
0)
#10
1w
1Z
1[
1)
#12
0)
#14
1)
#16
0)
#18
1)
#20
0)
#22
1)
#24
0)
#26
1)
#28
0)
#30
b1111 &
b1111 =
b1111 5"
b111100000111011011111111000000 *
b111100000111011011111111000000 -
b111100000111011011111111000000 \
b111100000111011011111111000000 l
b111100000111011011111111000000 '"
b10111111110000000000000000000100 |
b0 #"
1$"
0.
0,
1)
#32
0)
#34
b10111111110000000000000000000000 <"
b10111111110000000000000000000000 i"
1?
b10111111110000000000000000000000 9"
b0 0"
b0 k"
b0 A"
b0 ="
b0 6
b0 a
b0 y
b0 1"
b0 @"
b0 j"
b10111111110000000000000000000000 4"
b10111111110000000000000000000000 B"
b11111111111111111011111111000000 ?"
b11111111111111111011111111000000 :"
b11111111111111111011111111000000 >"
b11101 ;"
b11101 h"
b11101 2"
b11101 f"
b0 3"
b0 e"
1/"
1P
1G
1H
1X
1O
0$
bx &
bx =
bx 5"
b11101 ]
b11101 h
b11101 v
b0 f
b0 j
b0 n
b1011111111000000 >
b1011111111000000 g
b1011111111000000 m
b1011111111000000 &"
b11111 2
b11111 ^
b11111 u
b11111 -"
b10111 7
b10111 b
b10111 r
b10111 *"
b11101 3
b11101 _
b11101 t
b11101 ,"
b0 4
b0 `
b0 s
b0 +"
b1111 8
b1111 d
b1111 i
b1111 o
b1111 )"
b111100000111011011111111000000 c
b111100000111011011111111000000 p
b111100000111011011111111000000 x
b111100000111011011111111000000 !"
1/
11
0w
b0 z
b0 ""
0[
b10111111110000000000000000000100 |
b0 #"
0$"
0.
1,
1)
#36
0)
#38
b100 %
0/"
1.
b10111111110000000000000000000000 ?"
b10111111110000000000000000000000 :"
b10111111110000000000000000000000 >"
b10111111110000000000000000000000 0"
b10111111110000000000000000000000 k"
0/
b10111111110000000000000000000100 |
0$"
b10111111110000000000000000000100 '
b10111111110000000000000000000100 Y
0O
0H
0G
0X
1$
b1111 &
b1111 =
b1111 5"
b10111111110000000000000000000000 ["
0Z
b10111111110000000000000000000100 9
b10111111110000000000000000000100 e
b10111111110000000000000000000100 {
b10111111110000000000000000000100 ("
b111100000111011011111111000000 q
01
1)
#40
0)
#42
1w
b0 ~
b111100000111011011111111000000 }
1Z
1[
b10111111110000000000000000001000 |
1$"
0.
0,
1)
#44
0)
#46
b11111111111111111011111111000000 ?"
b11111111111111111011111111000000 :"
b11111111111111111011111111000000 >"
1/
1/"
1G
1H
1X
1O
0$
bx &
bx =
bx 5"
0[
0w
11
b10111111110000000000000000001000 |
0$"
0.
1,
1)
#48
0)
#50
1.
b1000 %
0/"
b10111111110000000000000000000000 ?"
b10111111110000000000000000000000 :"
b10111111110000000000000000000000 >"
0$"
0O
0H
0G
0X
1$
b1111 &
b1111 =
b1111 5"
b10111111110000000000000000001000 |
b10111111110000000000000000001000 '
b10111111110000000000000000001000 Y
0/
01
b10111111110000000000000000001000 9
b10111111110000000000000000001000 e
b10111111110000000000000000001000 {
b10111111110000000000000000001000 ("
0Z
1)
#52
0)
#54
b1111 &
b1111 =
b1111 5"
b100111101111010000000011111111 *
b100111101111010000000011111111 -
b100111101111010000000011111111 \
b100111101111010000000011111111 l
b100111101111010000000011111111 '"
1Z
1[
1w
b10111111110000000000000000001100 |
1$"
0.
0,
1)
#56
0)
#58
0?
1M
b10111111110000000000000011111111 9"
b10111111110000000000000011111111 <"
b10111111110000000000000011111111 i"
b1111111111111111111111111100000000000000010000000000000000000000 A"
b10111111110000000000000000000000 ="
b10111111110000000000000000000000 6
b10111111110000000000000000000000 a
b10111111110000000000000000000000 y
b10111111110000000000000000000000 1"
b10111111110000000000000000000000 @"
b10111111110000000000000000000000 j"
b10111111110000000000000011111111 4"
b10111111110000000000000011111111 B"
b11111111 ?"
b11111111 :"
b11111111 >"
b11101 3"
b11101 e"
1/"
0P
1C
1W
1H
1X
0$
bx &
bx =
bx 5"
b111111 f
b111111 j
b111111 n
b11111111 >
b11111111 g
b11111111 m
b11111111 &"
b11 2
b11 ^
b11 u
b11 -"
b0 7
b0 b
b0 r
b0 *"
b11101 4
b11101 `
b11101 s
b11101 +"
b1001 8
b1001 d
b1001 i
b1001 o
b1001 )"
b100111101111010000000011111111 c
b100111101111010000000011111111 p
b100111101111010000000011111111 x
b100111101111010000000011111111 !"
1/
11
0w
0[
b10111111110000000000000000001100 |
0$"
0.
1,
1)
#60
0)
#62
b1100 %
0/"
1Q
b10111111110000000000000011111111 ?"
b10111111110000000000000011111111 :"
b10111111110000000000000011111111 >"
b10111111110000000000000011111111 0"
b10111111110000000000000011111111 k"
b1000000100000000011111000000000000000100000001111111000000001 A"
b10111111110000000000000011111111 ="
b10111111110000000000000011111111 6
b10111111110000000000000011111111 a
b10111111110000000000000011111111 y
b10111111110000000000000011111111 1"
b10111111110000000000000011111111 @"
b10111111110000000000000011111111 j"
0/
b10111111110000000000000000010000 |
1$"
b10111111110000000000000000001100 '
b10111111110000000000000000001100 Y
0H
0C
0W
0X
1$
b1111 &
b1111 =
b1111 5"
b10111111110000000000000011111111 ["
0Z
b10111111110000000000000000001100 9
b10111111110000000000000000001100 e
b10111111110000000000000000001100 {
b10111111110000000000000000001100 ("
b100111101111010000000011111111 q
01
0,
1)
#64
0)
#66
1?
0M
0Q
b10111111110000000000000011111111 9"
b10111111110000000000000011111111 <"
b10111111110000000000000011111111 i"
b0 A"
b0 ="
b0 6
b0 a
b0 y
b0 1"
b0 @"
b0 j"
b10111111110000000000000011111111 4"
b10111111110000000000000011111111 B"
b11110 ;"
b11110 h"
b11110 3"
b11110 e"
1/"
1C
1W
1H
0$
1I
1/
b100001 f
b100001 j
b100001 n
b1111000000100001 >
b1111000000100001 g
b1111000000100001 m
b1111000000100001 &"
b0 2
b0 ^
b0 u
b0 -"
b11110 7
b11110 b
b11110 r
b11110 *"
b11110 4
b11110 `
b11110 s
b11110 +"
b0 8
b0 d
b0 i
b0 o
b0 )"
b11110111011111000000100001 c
b11110111011111000000100001 p
b11110111011111000000100001 x
b11110111011111000000100001 !"
bx &
bx =
bx 5"
11
b10111111110000000000000011111111 ~
b100111101111010000000011111111 }
1Z
b11110111011111000000100001 *
b11110111011111000000100001 -
b11110111011111000000100001 \
b11110111011111000000100001 l
b11110111011111000000100001 '"
b10111111110000000000000000010000 |
0$"
0.
1,
1)
#68
0)
#70
b10000 %
0/"
0?
1M
1Q
b1000000100000000011111000000000000000100000001111111000000001 A"
b10111111110000000000000011111111 ="
b10111111110000000000000011111111 6
b10111111110000000000000011111111 a
b10111111110000000000000011111111 y
b10111111110000000000000011111111 1"
b10111111110000000000000011111111 @"
b10111111110000000000000011111111 j"
0/
b10111111110000000000000000010100 |
b11101 ;"
b11101 h"
1$"
b10111111110000000000000000010000 '
b10111111110000000000000000010000 Y
0H
0C
0W
1$
0I
b1111 &
b1111 =
b1111 5"
b10111111110000000000000011111111 ]"
0Z
b10111111110000000000000000010000 9
b10111111110000000000000000010000 e
b10111111110000000000000000010000 {
b10111111110000000000000000010000 ("
b11110111011111000000100001 q
01
0,
1)
#72
0)
#74
1?
0M
b10101 9"
b10101 <"
b10101 i"
b0 0"
b0 k"
b0 ="
b0 6
b0 a
b0 y
b0 1"
b0 @"
b0 j"
0Q
b10101 4"
b10101 B"
b0 A"
b10101 ?"
b10101 :"
b10101 >"
b1 ;"
b1 h"
b1 2"
b1 f"
b0 3"
b0 e"
1/"
1C
1W
1H
1X
0$
1/
b1 ]
b1 h
b1 v
b10101 f
b10101 j
b10101 n
b10101 >
b10101 g
b10101 m
b10101 &"
b0 7
b0 b
b0 r
b0 *"
b1 3
b1 _
b1 t
b1 ,"
b0 4
b0 `
b0 s
b0 +"
b1001 8
b1001 d
b1001 i
b1001 o
b1001 )"
b100100000000010000000000010101 c
b100100000000010000000000010101 p
b100100000000010000000000010101 x
b100100000000010000000000010101 !"
bx &
bx =
bx 5"
11
b11110111011111000000100001 }
1Z
b100100000000010000000000010101 *
b100100000000010000000000010101 -
b100100000000010000000000010101 \
b100100000000010000000000010101 l
b100100000000010000000000010101 '"
b10111111110000000000000000010100 |
0$"
0.
1,
1)
#76
0)
#78
b10100 %
0/"
1.
b10101 0"
b10101 k"
0/
b10111111110000000000000000010100 |
0$"
b10111111110000000000000000010100 '
b10111111110000000000000000010100 Y
0H
0C
0W
0X
1$
b1111 &
b1111 =
b1111 5"
b10101 F"
0Z
b10111111110000000000000000010100 9
b10111111110000000000000000010100 e
b10111111110000000000000000010100 {
b10111111110000000000000000010100 ("
b100100000000010000000000010101 q
01
1)
#80
0)
#82
1w
b0 ~
b100100000000010000000000010101 }
1Z
1[
b10111111110000000000000000011000 |
1$"
0.
0,
1)
#84
0)
#86
1/
1/"
1C
1W
1H
1X
0$
bx &
bx =
bx 5"
0[
0w
11
b10111111110000000000000000011000 |
0$"
0.
1,
1)
#88
0)
#90
b11000 %
0/"
1$"
0H
0C
0W
0X
1$
b1111 &
b1111 =
b1111 5"
b10111111110000000000000000011100 |
b10111111110000000000000000011000 '
b10111111110000000000000000011000 Y
0/
01
b10111111110000000000000000011000 9
b10111111110000000000000000011000 e
b10111111110000000000000000011000 {
b10111111110000000000000000011000 ("
0Z
0,
1)
#92
0)
#94
b10101 <"
b10101 i"
b10101 9"
b0 ?"
b0 :"
b0 >"
0?
0Q
b10101 4"
b10101 B"
b0 0"
b0 k"
b0 A"
b10101 ="
b10101 6
b10101 a
b10101 y
b10101 1"
b10101 @"
b10101 j"
b10 ;"
b10 h"
b11 2"
b11 f"
b1 3"
b1 e"
1/
0$"
1/"
1@
1H
0$
1I
b11 ]
b11 h
b11 v
b100110 f
b100110 j
b100110 n
b1000000100110 >
b1000000100110 g
b1000000100110 m
b1000000100110 &"
b10 7
b10 b
b10 r
b10 *"
b11 3
b11 _
b11 t
b11 ,"
b1 4
b1 `
b1 s
b1 +"
b0 8
b0 d
b0 i
b0 o
b0 )"
b1000110001000000100110 c
b1000110001000000100110 p
b1000110001000000100110 x
b1000110001000000100110 !"
bx &
bx =
bx 5"
b1000110001000000100110 *
b1000110001000000100110 -
b1000110001000000100110 \
b1000110001000000100110 l
b1000110001000000100110 '"
1Z
11
1)
#96
0)
#98
b11100 %
0/"
b11 ;"
b11 h"
1$"
0H
0@
1$
0I
b1111 &
b1111 =
b1111 5"
b10111111110000000000000000100000 |
b10111111110000000000000000011100 '
b10111111110000000000000000011100 Y
0/
01
b1000110001000000100110 q
b10111111110000000000000000011100 9
b10111111110000000000000000011100 e
b10111111110000000000000000011100 {
b10111111110000000000000000011100 ("
0Z
b10101 #
b10101 5
b10101 ."
b10101 g"
b10101 Q"
1)
#100
0)
#102
b10 ;"
b10 h"
1/
1/"
1@
1H
0$
1I
bx &
bx =
bx 5"
1Z
b10101 ~
b1000110001000000100110 }
11
b10111111110000000000000000100000 |
0$"
0.
1,
1)
#104
0)
#106
b100000 %
0/"
b11 ;"
b11 h"
1$"
0H
0@
1$
0I
b1111 &
b1111 =
b1111 5"
b10111111110000000000000000100100 |
b10111111110000000000000000100000 '
b10111111110000000000000000100000 Y
0/
01
b10111111110000000000000000100000 9
b10111111110000000000000000100000 e
b10111111110000000000000000100000 {
b10111111110000000000000000100000 ("
0Z
0,
1)
#108
0)
#110
b10 ;"
b10 h"
1/
1/"
1@
1H
0$
1I
bx &
bx =
bx 5"
1Z
11
b10111111110000000000000000100100 |
0$"
0.
1,
1)
#112
0)
#114
1.
b100100 %
0/"
b11 ;"
b11 h"
0$"
0H
0@
1$
0I
b1111 &
b1111 =
b1111 5"
b10111111110000000000000000100100 |
b10111111110000000000000000100100 '
b10111111110000000000000000100100 Y
0/
01
b10111111110000000000000000100100 9
b10111111110000000000000000100100 e
b10111111110000000000000000100100 {
b10111111110000000000000000100100 ("
0Z
1)
#116
0)
#118
1Z
1[
1w
1)
#120
0)
#122
1)
#124
0)
#126
b1111 &
b1111 =
b1111 5"
b0 *
b0 -
b0 \
b0 l
b0 '"
b10111111110000000000000000101000 |
1$"
0.
0,
1)
#128
0)
#130
b0 9"
b0 <"
b0 i"
1?
1Q
b0 4"
b0 B"
1%"
b0 ="
b0 6
b0 a
b0 y
b0 1"
b0 @"
b0 j"
b0 ;"
b0 h"
b0 2"
b0 f"
b0 3"
b0 e"
0$"
1/"
1G
1E
1H
1X
0$
1I
bx &
bx =
bx 5"
b0 ]
b0 h
b0 v
b0 f
b0 j
b0 n
b0 >
b0 g
b0 m
b0 &"
b0 7
b0 b
b0 r
b0 *"
b0 3
b0 _
b0 t
b0 ,"
b0 4
b0 `
b0 s
b0 +"
b0 c
b0 p
b0 x
b0 !"
1/
11
0w
0[
1)
#132
0)
#134
b101000 %
0/"
0%"
0/
b10111111110000000000000000101100 |
1$"
b10111111110000000000000000101000 '
b10111111110000000000000000101000 Y
0H
0G
0E
0X
1$
0I
b1111 &
b1111 =
b1111 5"
0Z
b10111111110000000000000000101000 9
b10111111110000000000000000101000 e
b10111111110000000000000000101000 {
b10111111110000000000000000101000 ("
b0 q
01
1)
#136
0)
#138
1%"
0$"
1/"
1G
1E
1H
1X
0$
1I
bx &
bx =
bx 5"
1/
11
b0 ~
b0 }
1Z
1)
#140
0)
#142
b101100 %
0/"
1.
0%"
0/
b10111111110000000000000000101100 |
0$"
b10111111110000000000000000101100 '
b10111111110000000000000000101100 Y
0H
0G
0E
0X
1$
0I
b1111 &
b1111 =
b1111 5"
0Z
b10111111110000000000000000101100 9
b10111111110000000000000000101100 e
b10111111110000000000000000101100 {
b10111111110000000000000000101100 ("
01
1,
1)
#144
0)
#146
1w
1Z
1[
b10111111110000000000000000110000 |
1$"
0.
0,
1)
#148
0)
#150
1%"
1/
1/"
1G
1E
1H
1X
0$
1I
bx &
bx =
bx 5"
0[
0w
11
b10111111110000000000000000110000 |
0$"
0.
1,
1)
#152
0)
#154
1.
b110000 %
0/"
0%"
0$"
0H
0G
0E
0X
1$
0I
b1111 &
b1111 =
b1111 5"
b10111111110000000000000000110000 |
b10111111110000000000000000110000 '
b10111111110000000000000000110000 Y
0/
01
b10111111110000000000000000110000 9
b10111111110000000000000000110000 e
b10111111110000000000000000110000 {
b10111111110000000000000000110000 ("
0Z
1)
#156
0)
#158
1Z
1[
1w
1)
#160
0)
#162
1)
#164
0)
#166
1)
#168
0)
#170
b10111111110000000000000000110100 |
1$"
0.
0,
1)
#172
0)
#174
1%"
1/
0$"
1/"
1G
1E
1H
1X
0$
1I
bx &
bx =
bx 5"
0[
0w
11
1)
#176
0)
#178
1.
b110100 %
0/"
0%"
0$"
0H
0G
0E
0X
1$
0I
b1111 &
b1111 =
b1111 5"
b10111111110000000000000000110100 |
b10111111110000000000000000110100 '
b10111111110000000000000000110100 Y
0/
01
b10111111110000000000000000110100 9
b10111111110000000000000000110100 e
b10111111110000000000000000110100 {
b10111111110000000000000000110100 ("
0Z
1,
1)
#180
0)
#182
1Z
1[
1w
1)
#184
0)
#186
1)
#188
0)
#190
b10111111110000000000000000111000 |
1$"
0.
0,
1)
#192
0)
#194
1%"
0$"
1/"
1G
1E
1H
1X
0$
1I
bx &
bx =
bx 5"
1/
11
0w
0[
1)
#196
0)
#198
b111000 %
0/"
0%"
0/
b10111111110000000000000000111100 |
1$"
b10111111110000000000000000111000 '
b10111111110000000000000000111000 Y
0H
0G
0E
0X
1$
0I
b1111 &
b1111 =
b1111 5"
0Z
b10111111110000000000000000111000 9
b10111111110000000000000000111000 e
b10111111110000000000000000111000 {
b10111111110000000000000000111000 ("
01
1)
#200
0)
#202
1%"
0$"
1/"
1G
1E
1H
1X
0$
1I
bx &
bx =
bx 5"
1/
11
1Z
1)
#204
0)
#206
b111100 %
0/"
0%"
0/
b10111111110000000000000001000000 |
1$"
b10111111110000000000000000111100 '
b10111111110000000000000000111100 Y
0H
0G
0E
0X
1$
0I
b1111 &
b1111 =
b1111 5"
0Z
b10111111110000000000000000111100 9
b10111111110000000000000000111100 e
b10111111110000000000000000111100 {
b10111111110000000000000000111100 ("
01
1)
#208
0)
