test/harvard/bgtz/mips_cpu_harvard_tb.vcd
$date
	Mon Nov 29 14:04:31 2021
$end
$version
	Icarus Verilog
$end
$timescale
	1s
$end
$scope module bgtz_0 $end
$scope module TB $end
$var wire 8 ! rom_wordaddr [7:0] $end
$var wire 32 " register_v0 [31:0] $end
$var wire 8 # ram_wordaddr [7:0] $end
$var wire 32 $ instr_readdata [31:0] $end
$var wire 32 % instr_address [31:0] $end
$var wire 32 & data_writedata [31:0] $end
$var wire 1 ' data_write $end
$var wire 32 ( data_readdata [31:0] $end
$var wire 1 ) data_read $end
$var wire 32 * data_address [31:0] $end
$var wire 1 + active $end
$var reg 1 , clk $end
$var reg 1 - clk_enable $end
$var reg 1 . reset $end
$scope module dut $end
$var wire 1 , clk $end
$var wire 1 - clk_enable $end
$var wire 32 / data_readdata [31:0] $end
$var wire 32 0 instr_readdata [31:0] $end
$var wire 1 . reset $end
$var wire 5 1 shamt [4:0] $end
$var wire 5 2 rt [4:0] $end
$var wire 5 3 rs [4:0] $end
$var wire 32 4 register_v0 [31:0] $end
$var wire 32 5 read_data_0 [31:0] $end
$var wire 5 6 rd [4:0] $end
$var wire 32 7 instr_address [31:0] $end
$var wire 1 8 finish $end
$var wire 1 ' data_write $end
$var wire 1 ) data_read $end
$var wire 32 9 data_address [31:0] $end
$var wire 16 : alu_immediate [15:0] $end
$var wire 1 ; Z $end
$var wire 1 < Xor $end
$var wire 1 = WriteLo $end
$var wire 1 > WriteHi $end
$var wire 1 ? Unsigned $end
$var wire 1 @ Sub $end
$var wire 1 A ShiftAmt $end
$var wire 1 B SR $end
$var wire 1 C SL $end
$var wire 1 D RegWrite $end
$var wire 1 E RegDst $end
$var wire 1 F ReadLo $end
$var wire 1 G ReadHi $end
$var wire 1 H R31 $end
$var wire 1 I Or $end
$var wire 1 J N $end
$var wire 1 K Mul $end
$var wire 1 L MemtoReg $end
$var wire 1 M EQ $end
$var wire 1 N Div $end
$var wire 1 O Boolean $end
$var wire 1 P B_link $end
$var wire 1 Q Arithmetic $end
$var wire 1 R And $end
$var wire 1 S Add $end
$var wire 1 T ALUSrc $end
$var reg 1 + active $end
$var reg 32 U data_writedata [31:0] $end
$scope module controlpathblock $end
$var wire 1 , clk $end
$var wire 32 V instr_readdata [31:0] $end
$var wire 1 . reset $end
$var wire 1 W state $end
$var wire 5 X special_branch_codes [4:0] $end
$var wire 5 Y shamt [4:0] $end
$var wire 5 Z rt [4:0] $end
$var wire 5 [ rs [4:0] $end
$var wire 32 \ read_data_0 [31:0] $end
$var wire 5 ] rd [4:0] $end
$var wire 32 ^ instruction_word [31:0] $end
$var wire 6 _ instruction_opcode [5:0] $end
$var wire 32 ` instr_address [31:0] $end
$var wire 6 a func_code [5:0] $end
$var wire 1 8 finish $end
$var wire 16 b alu_immediate [15:0] $end
$var wire 1 ; Z $end
$var wire 1 < Xor $end
$var wire 1 = WriteLo $end
$var wire 1 > WriteHi $end
$var wire 1 ? Unsigned $end
$var wire 1 @ Sub $end
$var wire 1 A ShiftAmt $end
$var wire 1 B SR $end
$var wire 1 C SL $end
$var wire 1 D RegWrite $end
$var wire 1 E RegDst $end
$var wire 1 F ReadLo $end
$var wire 1 G ReadHi $end
$var wire 1 H R31 $end
$var wire 1 I Or $end
$var wire 1 J N $end
$var wire 1 K Mul $end
$var wire 1 L MemtoReg $end
$var wire 1 ' MemWrite $end
$var wire 1 ) MemRead $end
$var wire 1 M EQ $end
$var wire 1 N Div $end
$var wire 1 O Boolean $end
$var wire 1 P B_link $end
$var wire 1 Q Arithmetic $end
$var wire 1 R And $end
$var wire 1 S Add $end
$var wire 1 T ALUSrc $end
$scope module control_block $end
$var wire 1 W state $end
$var wire 5 c special_branch_codes [4:0] $end
$var wire 6 d instruction_opcode [5:0] $end
$var wire 6 e func_code [5:0] $end
$var wire 1 P B_link $end
$var reg 1 T ALUSrc $end
$var reg 1 S Add $end
$var reg 1 R And $end
$var reg 1 Q Arithmetic $end
$var reg 1 O Boolean $end
$var reg 1 N Div $end
$var reg 1 ) MemRead $end
$var reg 1 ' MemWrite $end
$var reg 1 L MemtoReg $end
$var reg 1 K Mul $end
$var reg 1 I Or $end
$var reg 1 H R31 $end
$var reg 1 G ReadHi $end
$var reg 1 F ReadLo $end
$var reg 1 E RegDst $end
$var reg 1 D RegWrite $end
$var reg 1 C SL $end
$var reg 1 B SR $end
$var reg 1 A ShiftAmt $end
$var reg 1 @ Sub $end
$var reg 1 ? Unsigned $end
$var reg 1 > WriteHi $end
$var reg 1 = WriteLo $end
$var reg 1 < Xor $end
$upscope $end
$scope module ir_block $end
$var wire 32 f read_data [31:0] $end
$var reg 16 g alu_immediate [15:0] $end
$var reg 6 h func_code [5:0] $end
$var reg 6 i instruction_opcode [5:0] $end
$var reg 32 j instruction_word [31:0] $end
$var reg 5 k rd [4:0] $end
$var reg 5 l rs [4:0] $end
$var reg 5 m rt [4:0] $end
$var reg 5 n shamt [4:0] $end
$var reg 5 o special_branch_codes [4:0] $end
$upscope $end
$scope module pc_block $end
$var wire 1 , clk $end
$var wire 32 p instruction_word [31:0] $end
$var wire 1 . reset $end
$var wire 1 W state $end
$var wire 32 q read_data_0 [31:0] $end
$var wire 2 r jump_addr_selection [1:0] $end
$var wire 1 ; Z $end
$var wire 1 J N $end
$var wire 1 M EQ $end
$var wire 1 P B_link $end
$var reg 32 s addr [31:0] $end
$var reg 32 t addr_next [31:0] $end
$var reg 1 8 finish $end
$var reg 32 u instruction_word_prev [31:0] $end
$scope module branch_controlblock $end
$var wire 1 , clk $end
$var wire 32 v instruction_word [31:0] $end
$var wire 1 W state $end
$var wire 1 ; Z $end
$var wire 1 J N $end
$var wire 1 M EQ $end
$var reg 1 P B_link $end
$var reg 2 w jump_addr_selection [1:0] $end
$var reg 2 x jump_addr_selection_next [1:0] $end
$upscope $end
$upscope $end
$scope module statemachine_block $end
$var wire 1 , clk $end
$var wire 1 . reset $end
$var wire 1 y state_next $end
$var reg 1 W state $end
$upscope $end
$upscope $end
$scope module datapathblock $end
$var wire 1 T ALUSrc $end
$var wire 1 S Add $end
$var wire 1 R And $end
$var wire 1 Q Arithmetic $end
$var wire 1 P B_link $end
$var wire 1 O Boolean $end
$var wire 1 N Div $end
$var wire 1 L MemtoReg $end
$var wire 1 K Mul $end
$var wire 1 I Or $end
$var wire 1 G ReadHi $end
$var wire 1 F ReadLo $end
$var wire 1 E RegDst $end
$var wire 1 D RegWrite $end
$var wire 1 C SL $end
$var wire 1 B SR $end
$var wire 1 A ShiftAmt $end
$var wire 1 @ Sub $end
$var wire 1 ? Unsigned $end
$var wire 1 > WriteHi $end
$var wire 1 = WriteLo $end
$var wire 1 < Xor $end
$var wire 16 z alu_immediate [15:0] $end
$var wire 1 , clk $end
$var wire 32 { data_readdata [31:0] $end
$var wire 32 | instr_address [31:0] $end
$var wire 5 } rd [4:0] $end
$var wire 1 . reset $end
$var wire 5 ~ rs [4:0] $end
$var wire 5 !" rt [4:0] $end
$var wire 5 "" shamt [4:0] $end
$var wire 32 #" register_v0 [31:0] $end
$var wire 32 $" read_data_1 [31:0] $end
$var wire 32 %" read_data_0 [31:0] $end
$var wire 32 &" alu_out [31:0] $end
$var wire 1 ; Z $end
$var wire 1 J N $end
$var wire 1 M EQ $end
$var reg 32 '" op2 [31:0] $end
$var reg 5 (" write_addr [4:0] $end
$var reg 32 )" write_data [31:0] $end
$scope module alu_block $end
$var wire 1 S Add $end
$var wire 1 R And $end
$var wire 1 Q Arithmetic $end
$var wire 1 O Boolean $end
$var wire 1 N Div $end
$var wire 1 K Mul $end
$var wire 1 I Or $end
$var wire 1 G ReadHi $end
$var wire 1 F ReadLo $end
$var wire 1 C Sl $end
$var wire 1 B Sr $end
$var wire 1 @ Sub $end
$var wire 1 ? Unsigned $end
$var wire 1 > WriteHi $end
$var wire 1 = WriteLo $end
$var wire 1 < Xor $end
$var wire 1 , clk $end
$var wire 32 *" op1_s [31:0] $end
$var wire 32 +" op2 [31:0] $end
$var wire 32 ," op2_s [31:0] $end
$var wire 32 -" subtractedUnsigned [31:0] $end
$var wire 32 ." subtractedSigned [31:0] $end
$var wire 32 /" op1 [31:0] $end
$var wire 64 0" multiplied [63:0] $end
$var reg 32 1" alu_out [31:0] $end
$var reg 1 M eq $end
$var reg 32 2" hi [31:0] $end
$var reg 32 3" lo [31:0] $end
$var reg 1 J n $end
$var reg 1 ; z $end
$upscope $end
$scope module regfile_block $end
$var wire 1 , clk $end
$var wire 32 4" r0 [31:0] $end
$var wire 32 5" r1 [31:0] $end
$var wire 32 6" r10 [31:0] $end
$var wire 32 7" r11 [31:0] $end
$var wire 32 8" r12 [31:0] $end
$var wire 32 9" r13 [31:0] $end
$var wire 32 :" r14 [31:0] $end
$var wire 32 ;" r15 [31:0] $end
$var wire 32 <" r16 [31:0] $end
$var wire 32 =" r17 [31:0] $end
$var wire 32 >" r18 [31:0] $end
$var wire 32 ?" r19 [31:0] $end
$var wire 32 @" r2 [31:0] $end
$var wire 32 A" r20 [31:0] $end
$var wire 32 B" r21 [31:0] $end
$var wire 32 C" r22 [31:0] $end
$var wire 32 D" r23 [31:0] $end
$var wire 32 E" r24 [31:0] $end
$var wire 32 F" r25 [31:0] $end
$var wire 32 G" r26 [31:0] $end
$var wire 32 H" r27 [31:0] $end
$var wire 32 I" r28 [31:0] $end
$var wire 32 J" r29 [31:0] $end
$var wire 32 K" r3 [31:0] $end
$var wire 32 L" r30 [31:0] $end
$var wire 32 M" r31 [31:0] $end
$var wire 32 N" r4 [31:0] $end
$var wire 32 O" r5 [31:0] $end
$var wire 32 P" r6 [31:0] $end
$var wire 32 Q" r7 [31:0] $end
$var wire 32 R" r8 [31:0] $end
$var wire 32 S" r9 [31:0] $end
$var wire 5 T" read_addr_0 [4:0] $end
$var wire 5 U" read_addr_1 [4:0] $end
$var wire 32 V" register_v0 [31:0] $end
$var wire 1 . reset $end
$var wire 1 D wen $end
$var wire 5 W" write_addr [4:0] $end
$var wire 32 X" write_data [31:0] $end
$var reg 32 Y" read_data_0 [31:0] $end
$var reg 32 Z" read_data_1 [31:0] $end
$scope begin $ivl_for_loop1 $end
$var integer 32 [" i [31:0] $end
$upscope $end
$upscope $end
$upscope $end
$upscope $end
$scope begin $ivl_for_loop0 $end
$var integer 32 \" i [31:0] $end
$upscope $end
$upscope $end
$upscope $end
$enddefinitions $end
#0
$dumpvars
b11111111 \"
bx ["
bx Z"
bx Y"
bx X"
bx W"
bx V"
bx U"
bx T"
bx S"
bx R"
bx Q"
bx P"
bx O"
bx N"
bx M"
bx L"
bx K"
bx J"
bx I"
bx H"
bx G"
bx F"
bx E"
bx D"
bx C"
bx B"
bx A"
bx @"
bx ?"
bx >"
bx ="
bx <"
bx ;"
bx :"
bx 9"
bx 8"
bx 7"
bx 6"
bx 5"
bx 4"
bx 3"
bx 2"
bx 1"
bx 0"
bx /"
bx ."
bx -"
bx ,"
bx +"
bx *"
bx )"
bx ("
bx '"
bx &"
bx %"
bx $"
bx #"
bx ""
bx !"
bx ~
bx }
bx |
bx {
bx z
xy
bx x
bx w
bx v
bx u
bx t
bx s
bx r
bx q
bx p
bx o
bx n
bx m
bx l
bx k
bx j
bx i
bx h
bx g
bx f
bx e
bx d
bx c
bx b
bx a
bx `
bx _
bx ^
bx ]
bx \
bx [
bx Z
bx Y
bx X
xW
bx V
bx U
0T
0S
0R
0Q
xP
0O
0N
xM
0L
0K
xJ
0I
xH
0G
0F
0E
xD
0C
0B
0A
0@
0?
0>
0=
0<
x;
bx :
bx 9
x8
bx 7
bx 6
bx 5
bx 4
bx 3
bx 2
bx 1
bx 0
bx /
0.
x-
0,
x+
bx *
0)
bx (
0'
bx &
bx %
bx $
b0xxxxxx #
bx "
b0xxxxxx !
$end
#2
0H
0D
0P
b0 x
0;
0J
0M
1,
#4
1.
0,
#6
b0 ."
b0 0"
b0 ,"
b0 -"
b0 '"
b0 +"
b1 ("
b1 W"
b0 $"
b0 Z"
b0 *"
b0 5
b0 \
b0 q
b0 %"
b0 /"
b0 Y"
b1 X
b1 c
b1 o
b10 a
b10 e
b10 h
b10 :
b10 b
b10 g
b10 z
b0 1
b0 Y
b0 n
b0 ""
b0 6
b0 ]
b0 k
b0 }
b1 2
b1 Z
b1 m
b1 !"
b1 U"
b0 3
b0 [
b0 l
b0 ~
b0 T"
b100100000000010000000000000010 ^
b100100000000010000000000000010 j
b100100000000010000000000000010 p
b100100000000010000000000000010 v
b1001 _
b1001 d
b1001 i
b100100000000010000000000000010 $
b100100000000010000000000000010 0
b100100000000010000000000000010 V
b100100000000010000000000000010 f
b0 !
b10111111110000000000000000000100 t
08
1L
b0 M"
b0 L"
b0 J"
b0 I"
b0 H"
b0 G"
b0 F"
b0 E"
b0 D"
b0 C"
b0 B"
b0 A"
b0 ?"
b0 >"
b0 ="
b0 <"
b0 ;"
b0 :"
b0 9"
b0 8"
b0 7"
b0 6"
b0 S"
b0 R"
b0 Q"
b0 P"
b0 O"
b0 N"
b0 K"
b0 "
b0 4
b0 #"
b0 V"
b0 @"
b0 5"
b0 4"
1+
b10111111110000000000000000000000 %
b10111111110000000000000000000000 7
b10111111110000000000000000000000 `
b10111111110000000000000000000000 s
b10111111110000000000000000000000 |
1y
0W
b100000 ["
1,
#8
0.
0,
#10
b0 #
b10 )"
b10 X"
b11111111111111111111111111111110 ."
b10 *
b10 9
b10 &"
b10 1"
b10 ,"
b11111111111111111111111111111110 -"
b10 '"
b10 +"
1?
1S
1D
1T
0L
0y
1W
1;
1M
1,
#12
0,
#14
b10 ."
b0 ,"
b0 '"
b0 +"
b0 ("
b0 W"
b10 -"
b0 0"
b10 *"
b10 5
b10 \
b10 q
b10 %"
b10 /"
b10 Y"
b0 X
b0 c
b0 o
b11 a
b11 e
b11 h
b11 :
b11 b
b11 g
b11 z
b0 2
b0 Z
b0 m
b0 !"
b0 U"
b1 3
b1 [
b1 l
b1 ~
b1 T"
b11100001000000000000000000011 ^
b11100001000000000000000000011 j
b11100001000000000000000000011 p
b11100001000000000000000000011 v
b111 _
b111 d
b111 i
b11100001000000000000000000011 $
b11100001000000000000000000011 0
b11100001000000000000000000011 V
b11100001000000000000000000011 f
b1 !
b0 $"
b0 Z"
bx )"
bx X"
b10111111110000000000000000001000 t
0?
0S
0D
0T
1L
b10 5"
0M
b100100000000010000000000000010 u
b10111111110000000000000000000100 %
b10111111110000000000000000000100 7
b10111111110000000000000000000100 `
b10111111110000000000000000000100 s
b10111111110000000000000000000100 |
b0 r
b0 w
1y
0W
1,
#16
0,
#18
b111111 #
b11111111111111111111111111111111 ."
b11111111111111111111111111111111 *
b11111111111111111111111111111111 9
b11111111111111111111111111111111 &"
b11111111111111111111111111111111 1"
b110 0"
b11 ,"
b11111111111111111111111111111111 -"
b11 '"
b11 +"
b11111111111111111111111111111111 )"
b11111111111111111111111111111111 X"
1@
1T
0L
0y
1W
0;
1,
#20
0,
#22
b10 ("
b10 W"
b0 *"
b0 5
b0 \
b0 q
b0 %"
b0 /"
b0 Y"
b10 X
b10 c
b10 o
b1 a
b1 e
b1 h
b1 :
b1 b
b1 g
b1 z
b10 2
b10 Z
b10 m
b10 !"
b10 U"
b10 3
b10 [
b10 l
b10 ~
b10 T"
b100100010000100000000000000001 ^
b100100010000100000000000000001 j
b100100010000100000000000000001 p
b100100010000100000000000000001 v
b1001 _
b1001 d
b1001 i
b100100010000100000000000000001 $
b100100010000100000000000000001 0
b100100010000100000000000000001 V
b100100010000100000000000000001 f
b0 ."
b10 !
b0 0"
b0 ,"
b0 -"
b0 '"
b0 +"
b10111111110000000000000000001100 t
bx )"
bx X"
0@
0T
1L
b11100001000000000000000000011 u
b10111111110000000000000000001000 %
b10111111110000000000000000001000 7
b10111111110000000000000000001000 `
b10111111110000000000000000001000 s
b10111111110000000000000000001000 |
1y
0W
1,
#24
0,
#26
b0 #
b11111111111111111111111111111111 ."
b1 *
b1 9
b1 &"
b1 1"
b1 ,"
b11111111111111111111111111111111 -"
b1 '"
b1 +"
b1 )"
b1 X"
1?
1S
1D
1T
0L
0y
1W
1;
1M
1,
#28
0,
#30
b0 ."
b11 !
b1 $"
b1 Z"
b0 -"
b1 0"
b1 *"
b1 5
b1 \
b1 q
b1 %"
b1 /"
b1 Y"
b10111111110000000000000000010000 t
bx )"
bx X"
0?
0S
0D
0T
1L
b1 "
b1 4
b1 #"
b1 V"
b1 @"
0M
b100100010000100000000000000001 u
b10111111110000000000000000001100 %
b10111111110000000000000000001100 7
b10111111110000000000000000001100 `
b10111111110000000000000000001100 s
b10111111110000000000000000001100 |
1y
0W
1,
#32
0,
#34
b10 *
b10 9
b10 &"
b10 1"
b10 )"
b10 X"
1?
1S
1D
1T
0L
0y
1W
0;
1M
1,
#36
0,
#38
b0 ("
b0 W"
b1 x
b0 X
b0 c
b0 o
b1000 a
b1000 e
b1000 h
b1000 :
b1000 b
b1000 g
b1000 z
b0 2
b0 Z
b0 m
b0 !"
b0 U"
b0 3
b0 [
b0 l
b0 ~
b0 T"
b1000 ^
b1000 j
b1000 p
b1000 v
b0 _
b0 d
b0 i
b1000 $
b1000 0
b1000 V
b1000 f
b0 ."
b100 !
b0 ,"
b0 '"
b0 +"
b0 $"
b0 Z"
b0 -"
b0 0"
b0 *"
b0 5
b0 \
b0 q
b0 %"
b0 /"
b0 Y"
b10111111110000000000000000010100 t
bx )"
bx X"
0?
0S
0D
0T
1L
b10 "
b10 4
b10 #"
b10 V"
b10 @"
b10111111110000000000000000010000 %
b10111111110000000000000000010000 7
b10111111110000000000000000010000 `
b10111111110000000000000000010000 s
b10111111110000000000000000010000 |
1y
0W
1,
#40
0,
#42
b10 )"
b10 X"
0L
xE
0y
1W
1;
1,
#44
0,
#46
b0 ."
b100 0"
b10 ,"
b10 '"
b10 +"
b10 ("
b10 W"
b10 $"
b10 Z"
b0 -"
b10 *"
b10 5
b10 \
b10 q
b10 %"
b10 /"
b10 Y"
b0 x
b10 X
b10 c
b10 o
b100 a
b100 e
b100 h
b1000100 :
b1000100 b
b1000100 g
b1000100 z
b1 1
b1 Y
b1 n
b1 ""
b10 2
b10 Z
b10 m
b10 !"
b10 U"
b10 3
b10 [
b10 l
b10 ~
b10 T"
b100100010000100000000001000100 ^
b100100010000100000000001000100 j
b100100010000100000000001000100 p
b100100010000100000000001000100 v
b1001 _
b1001 d
b1001 i
b100100010000100000000001000100 $
b100100010000100000000001000100 0
b100100010000100000000001000100 V
b100100010000100000000001000100 f
b101 !
bx )"
bx X"
b10 t
1L
0E
b1000 u
b10111111110000000000000000010100 %
b10111111110000000000000000010100 7
b10111111110000000000000000010100 `
b10111111110000000000000000010100 s
b10111111110000000000000000010100 |
b1 r
b1 w
1y
0W
1,
#48
0,
#50
b10001 #
b11111111111111111111111110111110 ."
b1000110 *
b1000110 9
b1000110 &"
b1000110 1"
b10001000 0"
b1000100 ,"
b11111111111111111111111110111110 -"
b1000100 '"
b1000100 +"
b1000110 )"
b1000110 X"
1?
1S
1D
1T
0L
0y
1W
0;
1,
#52
0,
#54
bx ("
bx W"
bx X
bx c
bx o
bx a
bx e
bx h
bx :
bx b
bx g
bx z
bx 1
bx Y
bx n
bx ""
bx 6
bx ]
bx k
bx }
bx 2
bx Z
bx m
bx !"
bx U"
bx 3
bx [
bx l
bx ~
bx T"
bx ^
bx j
bx p
bx v
bx _
bx d
bx i
bx ."
bx $
bx 0
bx V
bx f
b0 !
bx ,"
bx '"
bx +"
bx $"
bx Z"
bx -"
bx 0"
bx *"
bx 5
bx \
bx q
bx %"
bx /"
bx Y"
bx )"
bx X"
b110 t
0?
0S
0D
0T
1L
b1000110 "
b1000110 4
b1000110 #"
b1000110 V"
b1000110 @"
0M
b100100010000100000000001000100 u
b10 %
b10 7
b10 `
b10 s
b10 |
b0 r
b0 w
1y
0W
1,
#56
0,
#58
b1000110 )"
b1000110 X"
0L
0y
1W
1,
#60
0,
#62
b1 !
b1010 t
bx )"
bx X"
1L
bx u
b110 %
b110 7
b110 `
b110 s
b110 |
1y
0W
1,
#64
0,
#66
b1000110 )"
b1000110 X"
0L
0y
1W
1,
#68
0,
#70
b10 !
b1110 t
bx )"
bx X"
1L
b1010 %
b1010 7
b1010 `
b1010 s
b1010 |
1y
0W
1,
#72
0,
#74
b1000110 )"
b1000110 X"
0L
0y
1W
1,
#76
0,
#78
b11 !
b10010 t
bx )"
bx X"
1L
b1110 %
b1110 7
b1110 `
b1110 s
b1110 |
1y
0W
1,
#80
0,
#82
b1000110 )"
b1000110 X"
0L
0y
1W
1,
#84
0,
#86
b100 !
b10110 t
bx )"
bx X"
1L
b10010 %
b10010 7
b10010 `
b10010 s
b10010 |
1y
0W
1,
#88
0,
#90
b1000110 )"
b1000110 X"
0L
0y
1W
1,
#92
0,
#94
b101 !
b11010 t
bx )"
bx X"
1L
b10110 %
b10110 7
b10110 `
b10110 s
b10110 |
1y
0W
1,
#96
0,
#98
b1000110 )"
b1000110 X"
0L
0y
1W
1,
#100
0,
#102
b110 !
b11110 t
bx )"
bx X"
1L
b11010 %
b11010 7
b11010 `
b11010 s
b11010 |
1y
0W
1,
#104
0,
#106
b1000110 )"
b1000110 X"
0L
0y
1W
1,
#108
0,
#110
b111 !
b100010 t
bx )"
bx X"
1L
b11110 %
b11110 7
b11110 `
b11110 s
b11110 |
1y
0W
1,
#112
0,
#114
b1000110 )"
b1000110 X"
0L
0y
1W
1,
#116
0,
#118
b1000 !
b100110 t
bx )"
bx X"
1L
b100010 %
b100010 7
b100010 `
b100010 s
b100010 |
1y
0W
1,
#120
0,
#122
b1000110 )"
b1000110 X"
0L
0y
1W
1,
#124
0,
#126
b1001 !
b101010 t
bx )"
bx X"
1L
b100110 %
b100110 7
b100110 `
b100110 s
b100110 |
1y
0W
1,
#128
0,
#130
b1000110 )"
b1000110 X"
0L
0y
1W
1,
#132
0,
#134
b1010 !
b101110 t
bx )"
bx X"
1L
b101010 %
b101010 7
b101010 `
b101010 s
b101010 |
1y
0W
1,
#136
0,
#138
b1000110 )"
b1000110 X"
0L
0y
1W
1,
#140
0,
#142
b1011 !
b110010 t
bx )"
bx X"
1L
b101110 %
b101110 7
b101110 `
b101110 s
b101110 |
1y
0W
1,
#144
0,
#146
b1000110 )"
b1000110 X"
0L
0y
1W
1,
#148
0,
#150
b1100 !
b110110 t
bx )"
bx X"
1L
b110010 %
b110010 7
b110010 `
b110010 s
b110010 |
1y
0W
1,
#152
0,
#154
b1000110 )"
b1000110 X"
0L
0y
1W
1,
#156
0,
#158
b1101 !
b111010 t
bx )"
bx X"
1L
b110110 %
b110110 7
b110110 `
b110110 s
b110110 |
1y
0W
1,
#160
0,
#162
b1000110 )"
b1000110 X"
0L
0y
1W
1,
#164
0,
#166
b1110 !
b111110 t
bx )"
bx X"
1L
b111010 %
b111010 7
b111010 `
b111010 s
b111010 |
1y
0W
1,
#168
0,
#170
b1000110 )"
b1000110 X"
0L
0y
1W
1,
#172
0,
#174
b1111 !
b1000010 t
bx )"
bx X"
1L
b111110 %
b111110 7
b111110 `
b111110 s
b111110 |
1y
0W
1,
#176
0,
#178
b1000110 )"
b1000110 X"
0L
0y
1W
1,
#180
0,
#182
b10000 !
b1000110 t
bx )"
bx X"
1L
b1000010 %
b1000010 7
b1000010 `
b1000010 s
b1000010 |
1y
0W
1,
#184
0,
#186
b1000110 )"
b1000110 X"
0L
0y
1W
1,
#188
0,
#190
b10001 !
b1001010 t
bx )"
bx X"
1L
b1000110 %
b1000110 7
b1000110 `
b1000110 s
b1000110 |
1y
0W
1,
#192
0,
#194
b1000110 )"
b1000110 X"
0L
0y
1W
1,
#196
0,
#198
b10010 !
b1001110 t
bx )"
bx X"
1L
b1001010 %
b1001010 7
b1001010 `
b1001010 s
b1001010 |
1y
0W
1,
#200
0,
#202
b1000110 )"
b1000110 X"
0L
0y
1W
1,
#204
0,
#206
b10011 !
b1010010 t
bx )"
bx X"
1L
b1001110 %
b1001110 7
b1001110 `
b1001110 s
b1001110 |
1y
0W
1,
#208
0,
#210
b1000110 )"
b1000110 X"
0L
0y
1W
1,
#212
0,
#214
b10100 !
b1010110 t
bx )"
bx X"
1L
b1010010 %
b1010010 7
b1010010 `
b1010010 s
b1010010 |
1y
0W
1,
#216
0,
#218
b1000110 )"
b1000110 X"
0L
0y
1W
1,
#220
0,
#222
b10101 !
b1011010 t
bx )"
bx X"
1L
b1010110 %
b1010110 7
b1010110 `
b1010110 s
b1010110 |
1y
0W
1,
#224
0,
#226
b1000110 )"
b1000110 X"
0L
0y
1W
1,
#228
0,
#230
b10110 !
b1011110 t
bx )"
bx X"
1L
b1011010 %
b1011010 7
b1011010 `
b1011010 s
b1011010 |
1y
0W
1,
#232
0,
#234
b1000110 )"
b1000110 X"
0L
0y
1W
1,
#236
0,
#238
b10111 !
b1100010 t
bx )"
bx X"
1L
b1011110 %
b1011110 7
b1011110 `
b1011110 s
b1011110 |
1y
0W
1,
#240
0,
#242
b1000110 )"
b1000110 X"
0L
0y
1W
1,
#244
0,
#246
b11000 !
b1100110 t
bx )"
bx X"
1L
b1100010 %
b1100010 7
b1100010 `
b1100010 s
b1100010 |
1y
0W
1,
#248
0,
#250
b1000110 )"
b1000110 X"
0L
0y
1W
1,
#252
0,
#254
b11001 !
b1101010 t
bx )"
bx X"
1L
b1100110 %
b1100110 7
b1100110 `
b1100110 s
b1100110 |
1y
0W
1,
#256
0,
#258
b1000110 )"
b1000110 X"
0L
0y
1W
1,
#260
0,
#262
b11010 !
b1101110 t
bx )"
bx X"
1L
b1101010 %
b1101010 7
b1101010 `
b1101010 s
b1101010 |
1y
0W
1,
#264
0,
#266
b1000110 )"
b1000110 X"
0L
0y
1W
1,
#268
0,
#270
b11011 !
b1110010 t
bx )"
bx X"
1L
b1101110 %
b1101110 7
b1101110 `
b1101110 s
b1101110 |
1y
0W
1,
#272
0,
#274
b1000110 )"
b1000110 X"
0L
0y
1W
1,
#276
0,
#278
b11100 !
b1110110 t
bx )"
bx X"
1L
b1110010 %
b1110010 7
b1110010 `
b1110010 s
b1110010 |
1y
0W
1,
#280
0,
#282
b1000110 )"
b1000110 X"
0L
0y
1W
1,
#284
0,
#286
b11101 !
b1111010 t
bx )"
bx X"
1L
b1110110 %
b1110110 7
b1110110 `
b1110110 s
b1110110 |
1y
0W
1,
#288
0,
#290
b1000110 )"
b1000110 X"
0L
0y
1W
1,
#292
0,
#294
b11110 !
b1111110 t
bx )"
bx X"
1L
b1111010 %
b1111010 7
b1111010 `
b1111010 s
b1111010 |
1y
0W
1,
#296
0,
#298
b1000110 )"
b1000110 X"
0L
0y
1W
1,
#300
0,
#302
b11111 !
b10000010 t
bx )"
bx X"
1L
b1111110 %
b1111110 7
b1111110 `
b1111110 s
b1111110 |
1y
0W
1,
#304
0,
#306
b1000110 )"
b1000110 X"
0L
0y
1W
1,
#308
0,
#310
b100000 !
b10000110 t
bx )"
bx X"
1L
b10000010 %
b10000010 7
b10000010 `
b10000010 s
b10000010 |
1y
0W
1,
#312
0,
#314
b1000110 )"
b1000110 X"
0L
0y
1W
1,
#316
0,
#318
b100001 !
b10001010 t
bx )"
bx X"
1L
b10000110 %
b10000110 7
b10000110 `
b10000110 s
b10000110 |
1y
0W
1,
#320
0,
#322
b1000110 )"
b1000110 X"
0L
0y
1W
1,
#324
0,
#326
b100010 !
b10001110 t
bx )"
bx X"
1L
b10001010 %
b10001010 7
b10001010 `
b10001010 s
b10001010 |
1y
0W
1,
#328
0,
#330
b1000110 )"
b1000110 X"
0L
0y
1W
1,
#332
0,
#334
b100011 !
b10010010 t
bx )"
bx X"
1L
b10001110 %
b10001110 7
b10001110 `
b10001110 s
b10001110 |
1y
0W
1,
#336
0,
#338
b1000110 )"
b1000110 X"
0L
0y
1W
1,
#340
0,
#342
b100100 !
b10010110 t
bx )"
bx X"
1L
b10010010 %
b10010010 7
b10010010 `
b10010010 s
b10010010 |
1y
0W
1,
#344
0,
#346
b1000110 )"
b1000110 X"
0L
0y
1W
1,
#348
0,
#350
b100101 !
b10011010 t
bx )"
bx X"
1L
b10010110 %
b10010110 7
b10010110 `
b10010110 s
b10010110 |
1y
0W
1,
#352
0,
#354
b1000110 )"
b1000110 X"
0L
0y
1W
1,
#356
0,
#358
b100110 !
b10011110 t
bx )"
bx X"
1L
b10011010 %
b10011010 7
b10011010 `
b10011010 s
b10011010 |
1y
0W
1,
#360
0,
#362
b1000110 )"
b1000110 X"
0L
0y
1W
1,
#364
0,
#366
b100111 !
b10100010 t
bx )"
bx X"
1L
b10011110 %
b10011110 7
b10011110 `
b10011110 s
b10011110 |
1y
0W
1,
#368
0,
#370
b1000110 )"
b1000110 X"
0L
0y
1W
1,
#372
0,
#374
b101000 !
b10100110 t
bx )"
bx X"
1L
b10100010 %
b10100010 7
b10100010 `
b10100010 s
b10100010 |
1y
0W
1,
#376
0,
#378
b1000110 )"
b1000110 X"
0L
0y
1W
1,
#380
0,
#382
b101001 !
b10101010 t
bx )"
bx X"
1L
b10100110 %
b10100110 7
b10100110 `
b10100110 s
b10100110 |
1y
0W
1,
#384
0,
#386
b1000110 )"
b1000110 X"
0L
0y
1W
1,
#388
0,
#390
b101010 !
b10101110 t
bx )"
bx X"
1L
b10101010 %
b10101010 7
b10101010 `
b10101010 s
b10101010 |
1y
0W
1,
#392
0,
#394
b1000110 )"
b1000110 X"
0L
0y
1W
1,
#396
0,
#398
b101011 !
b10110010 t
bx )"
bx X"
1L
b10101110 %
b10101110 7
b10101110 `
b10101110 s
b10101110 |
1y
0W
1,
#400
0,
#402
b1000110 )"
b1000110 X"
0L
0y
1W
1,
#404
0,
