test/bus/beq/mips_cpu_bus_tb.vcd
$date
	Thu Dec  9 15:44:41 2021
$end
$version
	Icarus Verilog
$end
$timescale
	1ns
$end
$scope module beq_4 $end
$scope module TB $end
$var wire 32 ! writedata [31:0] $end
$var wire 1 " write $end
$var wire 32 # register_v0 [31:0] $end
$var wire 1 $ read $end
$var wire 10 % ram_byte_aligned_addr [9:0] $end
$var wire 4 & byteenable [3:0] $end
$var wire 32 ' address [31:0] $end
$var wire 1 ( active $end
$var reg 1 ) clk $end
$var reg 32 * readdata [31:0] $end
$var reg 1 + reset $end
$var reg 1 , waitrequest $end
$scope module dut $end
$var wire 1 ( active $end
$var wire 1 ) clk $end
$var wire 32 - readdata [31:0] $end
$var wire 1 + reset $end
$var wire 1 , waitrequest $end
$var wire 32 . writedata [31:0] $end
$var wire 1 " write $end
$var wire 1 / wb_empty $end
$var wire 32 0 register_v0 [31:0] $end
$var wire 1 $ read $end
$var wire 32 1 instr_readdata_cpu_cc [31:0] $end
$var wire 1 2 instr_read_cpu_cc $end
$var wire 32 3 instr_address_cpu_cc [31:0] $end
$var wire 32 4 data_writedata_cpu_cc [31:0] $end
$var wire 1 5 data_write_cpu_cc $end
$var wire 32 6 data_readdata_cpu_cc [31:0] $end
$var wire 1 7 data_read_cpu_cc $end
$var wire 32 8 data_address_cpu_cc [31:0] $end
$var wire 1 9 cpu_active $end
$var wire 1 : clk_enable_cpu_cc $end
$var wire 4 ; byteenable [3:0] $end
$var wire 4 < byte_en_cpu_cc [3:0] $end
$var wire 32 = address [31:0] $end
$scope module cc $end
$var wire 1 ) clk $end
$var wire 1 $ mem_read $end
$var wire 32 > mem_readdata [31:0] $end
$var wire 1 + rst $end
$var wire 1 , waitrequest $end
$var wire 1 / wb_empty_out $end
$var wire 2 ? wb_state [1:0] $end
$var wire 1 @ wb_full $end
$var wire 1 A wb_empty $end
$var wire 4 B wb_byteenable [3:0] $end
$var wire 32 C mem_writedata [31:0] $end
$var wire 1 " mem_write $end
$var wire 4 D mem_byteenable [3:0] $end
$var wire 32 E mem_address [31:0] $end
$var wire 1 F instr_stall $end
$var wire 32 G instr_readdata [31:0] $end
$var wire 1 2 instr_read $end
$var wire 32 H instr_address [31:0] $end
$var wire 32 I data_writedata [31:0] $end
$var wire 1 5 data_write $end
$var wire 1 J data_stall $end
$var wire 32 K data_readdata [31:0] $end
$var wire 1 7 data_read $end
$var wire 4 L data_byteenable [3:0] $end
$var wire 32 M data_address [31:0] $end
$var wire 1 : clk_enable $end
$var wire 32 N addr_wbtomem [31:0] $end
$var wire 1 O addr_in_wb $end
$var reg 1 P data_data_valid $end
$var reg 1 Q data_stall_delay $end
$var reg 1 R instr_data_valid $end
$var reg 1 S instr_stall_delay $end
$var reg 2 T state [1:0] $end
$var reg 1 U wb_active $end
$scope module cache_data $end
$var wire 1 ) clk $end
$var wire 4 V curr_valid [3:0] $end
$var wire 32 W data_in [31:0] $end
$var wire 1 P data_valid $end
$var wire 1 + rst $end
$var wire 1 J stall $end
$var wire 1 X write_cond $end
$var wire 32 Y writedata [31:0] $end
$var wire 1 5 write_en $end
$var wire 32 Z reg_input [31:0] $end
$var wire 32 [ reg_in_tmp [31:0] $end
$var wire 32 \ readdata [31:0] $end
$var wire 1 7 read_en $end
$var wire 29 ] cache_tag [31:3] $end
$var wire 3 ^ cache_index [2:0] $end
$var wire 4 _ cache_hit_bus [3:0] $end
$var wire 1 ` cache_hit $end
$var wire 4 a byte_en [3:0] $end
$var wire 32 b addr_offset [31:0] $end
$var wire 32 c addr [31:0] $end
$var reg 2 d cache_assoc_index [1:0] $end
$var reg 32 e readdata_reg [31:0] $end
$var reg 32 f towrite [31:0] $end
$var integer 32 g i [31:0] $end
$var integer 32 h j [31:0] $end
$upscope $end
$scope module cache_instr $end
$var wire 1 ) clk $end
$var wire 4 i curr_valid [3:0] $end
$var wire 32 j data_in [31:0] $end
$var wire 1 R data_valid $end
$var wire 1 + rst $end
$var wire 1 F stall $end
$var wire 32 k readdata [31:0] $end
$var wire 1 2 read_en $end
$var wire 29 l cache_tag [31:3] $end
$var wire 3 m cache_index [2:0] $end
$var wire 4 n cache_hit_bus [3:0] $end
$var wire 1 o cache_hit $end
$var wire 32 p addr_offset [31:0] $end
$var wire 32 q addr [31:0] $end
$var reg 2 r cache_assoc_index [1:0] $end
$var reg 32 s readdata_reg [31:0] $end
$var integer 32 t i [31:0] $end
$var integer 32 u j [31:0] $end
$upscope $end
$scope module cache_writebuffer $end
$var wire 1 U active $end
$var wire 1 ) clk $end
$var wire 1 + rst $end
$var wire 2 v state_out [1:0] $end
$var wire 1 , waitrequest $end
$var wire 32 w write_addr [31:0] $end
$var wire 4 x write_byteenable [3:0] $end
$var wire 32 y write_data [31:0] $end
$var wire 1 " write_writeenable $end
$var wire 32 z writedata [31:0] $end
$var wire 1 5 write_en $end
$var wire 32 { instr_addr [31:0] $end
$var wire 1 @ full $end
$var wire 1 A empty $end
$var wire 4 | byteenable [3:0] $end
$var wire 32 } addr [31:0] $end
$var reg 1 O addr_in_wb $end
$var reg 8 ~ addr_in_wb_arr [7:0] $end
$var reg 8 !" full_buf [7:0] $end
$var reg 3 "" read_ptr [2:0] $end
$var reg 2 #" state [1:0] $end
$var reg 3 $" write_ptr [2:0] $end
$var reg 1 %" write_sense $end
$var integer 32 &" index [31:0] $end
$upscope $end
$upscope $end
$scope module cpu $end
$var wire 1 ) clk $end
$var wire 1 : clk_enable $end
$var wire 32 '" data_readdata [31:0] $end
$var wire 32 (" instr_address [31:0] $end
$var wire 32 )" instr_readdata [31:0] $end
$var wire 5 *" return_reg [4:0] $end
$var wire 1 + rst $end
$var wire 1 +" write_enable_r $end
$var wire 1 ," write_enable_i_exec3 $end
$var wire 1 -" write_enable_i_exec2 $end
$var wire 1 ." write_enable $end
$var wire 5 /" write_back_addr [4:0] $end
$var wire 16 0" sixteen_bit [15:0] $end
$var wire 5 1" shift [4:0] $end
$var wire 32 2" rt_data [31:0] $end
$var wire 5 3" rt_addr [4:0] $end
$var wire 32 4" rs_data [31:0] $end
$var wire 5 5" rs_addr [4:0] $end
$var wire 32 6" register_v0 [31:0] $end
$var wire 5 7" rd_addr [4:0] $end
$var wire 32 8" pc_next [31:0] $end
$var wire 6 9" opcode [5:0] $end
$var wire 26 :" jump_addr [25:0] $end
$var wire 2 ;" instr_type [1:0] $end
$var wire 1 2 instr_read $end
$var wire 32 <" instr [31:0] $end
$var wire 32 =" imm_signed_extended [31:0] $end
$var wire 32 >" imm_base_addr [31:0] $end
$var wire 16 ?" imm [15:0] $end
$var wire 6 @" fn_code [5:0] $end
$var wire 1 5 data_write $end
$var wire 1 7 data_read $end
$var wire 32 A" data_address [31:0] $end
$var reg 32 B" Hi [31:0] $end
$var reg 32 C" Lo [31:0] $end
$var reg 1 9 active $end
$var reg 32 D" branch_delay_slot [31:0] $end
$var reg 4 E" byteenable [3:0] $end
$var reg 32 F" data_writedata [31:0] $end
$var reg 32 G" instr_reg [31:0] $end
$var reg 1 H" jump_check $end
$var reg 64 I" mult_output [63:0] $end
$var reg 32 J" pc [31:0] $end
$var reg 3 K" state [2:0] $end
$var reg 32 L" write_back_data [31:0] $end
$scope module regs $end
$var wire 1 ) clk $end
$var wire 32 M" rd_data [31:0] $end
$var wire 5 N" rd_index [4:0] $end
$var wire 32 O" register_v0 [31:0] $end
$var wire 1 + reset $end
$var wire 5 P" rs_index [4:0] $end
$var wire 5 Q" rt_index [4:0] $end
$var wire 1 ." write_enable $end
$var wire 32 R" rt_data [31:0] $end
$var wire 32 S" rs_data [31:0] $end
$var integer 32 T" index [31:0] $end
$upscope $end
$scope module sixteen $end
$var wire 16 U" x [15:0] $end
$var wire 32 V" y [31:0] $end
$upscope $end
$upscope $end
$upscope $end
$scope begin $ivl_for_loop0 $end
$var integer 32 W" i [31:0] $end
$upscope $end
$scope begin $ivl_for_loop1 $end
$var integer 32 X" i [31:0] $end
$upscope $end
$upscope $end
$upscope $end
$enddefinitions $end
#0
$dumpvars
b100000000 X"
b100000000 W"
bx V"
bx U"
bx T"
bx S"
bx R"
bx Q"
bx P"
bx O"
bx N"
bx M"
bx L"
b100 K"
bx J"
bx I"
xH"
bx G"
b0 F"
b1111 E"
bx D"
b0 C"
b0 B"
b0 A"
bx @"
bx ?"
bx >"
bx ="
bx <"
bx ;"
bx :"
bx 9"
bx 8"
bx 7"
bx 6"
bx 5"
bx 4"
bx 3"
bx 2"
bx 1"
bx 0"
bx /"
0."
0-"
0,"
0+"
b11111 *"
bx )"
bx ("
bx '"
b1000 &"
x%"
bx $"
bx #"
bx ""
bx !"
bx ~
b0 }
b1111 |
bx {
b0 z
bx y
bx x
bx w
bx v
bx u
bx t
bx s
bx r
bx q
b0xxxxxxxxxxxxxxxxxxxxxxxxxxxxxx p
xo
bx n
bx m
b0xxxxxxxxxxxxxxxxxxxxxxxxxxx l
bx k
bx j
bx i
bx h
bx g
bx f
bx e
bx d
b0 c
b0 b
b1111 a
x`
bx _
b0 ^
b0 ]
bx \
b0 [
b0 Z
b0 Y
xX
bx W
bx V
xU
bx T
xS
xR
xQ
xP
xO
bx N
b0 M
b1111 L
bx K
0J
b0 I
bx H
bx G
0F
bx E
bx D
bx C
bx B
xA
x@
bx ?
bx >
bx =
b1111 <
bx ;
x:
09
b0 8
07
bx 6
05
b0 4
bx 3
02
bx 1
bx 0
x/
bx .
bx -
0,
0+
bx *
0)
x(
bx '
bx &
bx %
0$
bx #
x"
bx !
$end
#2000000000
0X
0%"
0P
0R
0Q
0S
1)
#4000000000
b0 4"
b0 S"
b0 2"
b0 R"
1+
0)
#6000000000
b0xxxxxxxxx %
0o
b0 n
b0 i
b0 m
b101111111100000000000000000 l
0"
b1111 &
b1111 ;
b1111 D
b0 '
b0 =
b0 E
1:
0`
b0 _
1(
b101111111100000000000000000000 p
1O
b11111111 ~
0U
b0 T
1/
1A
b0 B
b0 x
b0 !
b0 .
b0 C
b0 y
b0 N
b0 w
0@
b0 !"
b0 $"
b0 ""
b0 ?
b0 v
b0 #"
b0 V
19
b10111111110000000000000000000100 8"
b10111111110000000000000000000000 3
b10111111110000000000000000000000 H
b10111111110000000000000000000000 q
b10111111110000000000000000000000 {
b10111111110000000000000000000000 ("
b10111111110000000000000000000000 J"
b101 K"
b0 #
b0 0
b0 6"
b0 O"
b1000 &"
b100 h
b1000 g
b100 u
b1000 t
b100000 T"
1)
#8000000000
bx 4"
bx S"
bx 2"
bx R"
0+
0)
#10000000000
b0 %
b10111111110000000000000000000000 '
b10111111110000000000000000000000 =
b10111111110000000000000000000000 E
1$
0:
1F
12
b0 K"
1)
#12000000000
0)
#14000000000
b0 >"
b1 ;"
b11101 /"
b11101 N"
b0 4"
b0 S"
b0 2"
b0 R"
b0 ="
b0 V"
b0 0"
b0 U"
0$
1:
b1111 9"
b0 5"
b0 P"
b11101 3"
b11101 Q"
b10111 7"
b11111 1"
b0 @"
b1011111111000000 ?"
b111011011111111000000 :"
b111100000111011011111111000000 <"
0F
b111100000111011011111111000000 1
b111100000111011011111111000000 G
b111100000111011011111111000000 k
b111100000111011011111111000000 )"
b111100000111011011111111000000 *
b111100000111011011111111000000 -
b111100000111011011111111000000 >
b111100000111011011111111000000 W
b111100000111011011111111000000 j
b10 T
1R
1S
1)
#16000000000
0)
#18000000000
b0xxxxxxxxx %
b0 r
0$
1:
b0 '
b0 =
b0 E
02
1o
b1 n
0F
b1 K"
b1 i
b111100000111011011111111000000 s
0R
0S
b0 T
1)
#20000000000
0)
#22000000000
1."
0o
b0 n
1-"
b0 i
b1 m
b101111111100000000000000000001 p
b1000 &"
b10111111110000000000000000001000 8"
b10111111110000000000000000000100 3
b10111111110000000000000000000100 H
b10111111110000000000000000000100 q
b10111111110000000000000000000100 {
b10111111110000000000000000000100 ("
b10111111110000000000000000000100 J"
b10111111110000000000000000000000 L"
b10111111110000000000000000000000 M"
b111100000111011011111111000000 G"
b10 K"
1)
#24000000000
0)
#26000000000
b100 %
b10111111110000000000000000000100 '
b10111111110000000000000000000100 =
b10111111110000000000000000000100 E
1$
0:
0."
1F
0-"
12
b10111111110000000000000000000000 2"
b10111111110000000000000000000000 R"
b0 K"
1)
#28000000000
0)
#30000000000
b1000000 ="
b1000000 V"
b1000000 0"
b1000000 U"
b11100 /"
b11100 N"
b10111111110000000000000001000000 >"
b10111111110000000000000000000000 4"
b10111111110000000000000000000000 S"
b0 2"
b0 R"
0$
1:
b1001 9"
b11101 5"
b11101 P"
b11100 3"
b11100 Q"
b0 7"
b1 1"
b1000000 ?"
b11101111000000000001000000 :"
b100111101111000000000001000000 <"
0F
b100111101111000000000001000000 1
b100111101111000000000001000000 G
b100111101111000000000001000000 k
b100111101111000000000001000000 )"
b100111101111000000000001000000 *
b100111101111000000000001000000 -
b100111101111000000000001000000 >
b100111101111000000000001000000 W
b100111101111000000000001000000 j
b10 T
1R
1S
1)
#32000000000
0)
#34000000000
b0xxxxxxxxx %
0$
1:
b0 '
b0 =
b0 E
02
1o
b1 n
0F
b1 K"
b1 i
b100111101111000000000001000000 s
0R
0S
b0 T
1)
#36000000000
0)
#38000000000
1."
0o
b0 n
1-"
b0 i
b10 m
b101111111100000000000000000010 p
b1000 &"
b10111111110000000000000000001100 8"
b10111111110000000000000000001000 3
b10111111110000000000000000001000 H
b10111111110000000000000000001000 q
b10111111110000000000000000001000 {
b10111111110000000000000000001000 ("
b10111111110000000000000000001000 J"
b10111111110000000000000001000000 L"
b10111111110000000000000001000000 M"
b100111101111000000000001000000 G"
b10 K"
1)
#40000000000
0)
#42000000000
b1000 %
b10111111110000000000000000001000 '
b10111111110000000000000000001000 =
b10111111110000000000000000001000 E
1$
0:
0."
1F
0-"
12
b10111111110000000000000001000000 2"
b10111111110000000000000001000000 R"
b0 K"
1)
#44000000000
0)
#46000000000
b11101 /"
b11101 N"
b10111111110000000000000000000000 2"
b10111111110000000000000000000000 R"
b10111111110000000000000011111111 >"
b11111111 ="
b11111111 V"
b11111111 0"
b11111111 U"
0$
1:
b11101 3"
b11101 Q"
b11 1"
b111111 @"
b11111111 ?"
b11101111010000000011111111 :"
b100111101111010000000011111111 <"
0F
b100111101111010000000011111111 1
b100111101111010000000011111111 G
b100111101111010000000011111111 k
b100111101111010000000011111111 )"
b100111101111010000000011111111 *
b100111101111010000000011111111 -
b100111101111010000000011111111 >
b100111101111010000000011111111 W
b100111101111010000000011111111 j
b10 T
1R
1S
1)
#48000000000
0)
#50000000000
b0xxxxxxxxx %
0$
1:
b0 '
b0 =
b0 E
02
1o
b1 n
0F
b1 K"
b1 i
b100111101111010000000011111111 s
0R
0S
b0 T
1)
#52000000000
0)
#54000000000
1."
0o
b0 n
1-"
b0 i
b11 m
b101111111100000000000000000011 p
b1000 &"
b10111111110000000000000000010000 8"
b10111111110000000000000000001100 3
b10111111110000000000000000001100 H
b10111111110000000000000000001100 q
b10111111110000000000000000001100 {
b10111111110000000000000000001100 ("
b10111111110000000000000000001100 J"
b10111111110000000000000011111111 L"
b10111111110000000000000011111111 M"
b100111101111010000000011111111 G"
b10 K"
1)
#56000000000
0)
#58000000000
b1100 %
b10111111110000000000000000001100 '
b10111111110000000000000000001100 =
b10111111110000000000000000001100 E
1$
0:
0."
1F
0-"
12
b10111111110000000000000111111110 >"
b10111111110000000000000011111111 4"
b10111111110000000000000011111111 S"
b10111111110000000000000011111111 2"
b10111111110000000000000011111111 R"
b0 K"
1)
#60000000000
0)
#62000000000
b11110 /"
b11110 N"
b0 ;"
b0 4"
b0 S"
b0 >"
b0 ="
b0 V"
b0 0"
b0 U"
0$
1:
b0 9"
b11110 5"
b11110 P"
b11110 7"
b0 1"
b100001 @"
b1111000000100001 ?"
b11110111011111000000100001 :"
b11110111011111000000100001 <"
0F
b11110111011111000000100001 1
b11110111011111000000100001 G
b11110111011111000000100001 k
b11110111011111000000100001 )"
b11110111011111000000100001 *
b11110111011111000000100001 -
b11110111011111000000100001 >
b11110111011111000000100001 W
b11110111011111000000100001 j
b10 T
1R
1S
1)
#64000000000
0)
#66000000000
b0xxxxxxxxx %
0$
1:
b0 '
b0 =
b0 E
02
1o
b1 n
0F
b1 K"
b1 i
b11110111011111000000100001 s
0R
0S
b0 T
1)
#68000000000
0)
#70000000000
1."
1+"
0o
b0 n
b0 i
b100 m
b101111111100000000000000000100 p
b1000 &"
b10111111110000000000000000010100 8"
b10111111110000000000000000010000 3
b10111111110000000000000000010000 H
b10111111110000000000000000010000 q
b10111111110000000000000000010000 {
b10111111110000000000000000010000 ("
b10111111110000000000000000010000 J"
b11110111011111000000100001 G"
b10 K"
1)
#72000000000
0)
#74000000000
b10000 %
0."
b10111111110000000000000000010000 '
b10111111110000000000000000010000 =
b10111111110000000000000000010000 E
1$
0:
1F
0+"
12
b10111111110000000000000011111111 >"
b10111111110000000000000011111111 4"
b10111111110000000000000011111111 S"
b0 K"
1)
#76000000000
0)
#78000000000
b10 ;"
b0 >"
b0 4"
b0 S"
b0 2"
b0 R"
b10000 /"
b10000 N"
0$
1:
b10 9"
b11111 5"
b11111 P"
b10000 3"
b10000 Q"
b0 7"
b111 @"
b111 ?"
b11111100000000000000000111 :"
b1011111100000000000000000111 <"
0F
b1011111100000000000000000111 1
b1011111100000000000000000111 G
b1011111100000000000000000111 k
b1011111100000000000000000111 )"
b1011111100000000000000000111 *
b1011111100000000000000000111 -
b1011111100000000000000000111 >
b1011111100000000000000000111 W
b1011111100000000000000000111 j
b10 T
1R
1S
1)
#80000000000
0)
#82000000000
b0xxxxxxxxx %
0$
1:
b0 '
b0 =
b0 E
02
1o
b1 n
0F
b1 K"
b1 i
b1011111100000000000000000111 s
0R
0S
b0 T
1)
#84000000000
0)
#86000000000
0o
b0 n
b0 i
b101 m
b101111111100000000000000000101 p
b1000 &"
b10111111110000000000000000011000 8"
b10111111110000000000000000010100 3
b10111111110000000000000000010100 H
b10111111110000000000000000010100 q
b10111111110000000000000000010100 {
b10111111110000000000000000010100 ("
b10111111110000000000000000010100 J"
1H"
b10111111110000000000000000011100 D"
b1011111100000000000000000111 G"
b10 K"
1)
#88000000000
0)
#90000000000
b10100 %
b10111111110000000000000000010100 '
b10111111110000000000000000010100 =
b10111111110000000000000000010100 E
1$
0:
1F
12
b0 K"
1)
#92000000000
0)
#94000000000
b0 /"
b0 N"
b0 ;"
0$
1:
b0 9"
b0 5"
b0 P"
b0 3"
b0 Q"
b0 @"
b0 ?"
b0 :"
b0 <"
0F
b0 1
b0 G
b0 k
b0 )"
b0 *
b0 -
b0 >
b0 W
b0 j
b10 T
1R
1S
1)
#96000000000
0)
#98000000000
b0xxxxxxxxx %
0$
1:
b0 '
b0 =
b0 E
02
1o
b1 n
0F
b1 K"
b1 i
b0 s
0R
0S
b0 T
1)
#100000000000
0)
#102000000000
1."
1+"
0o
b0 n
b0 i
b111 m
b101111111100000000000000000111 p
b1000 &"
0H"
b10111111110000000000000000100000 8"
b10111111110000000000000000011100 3
b10111111110000000000000000011100 H
b10111111110000000000000000011100 q
b10111111110000000000000000011100 {
b10111111110000000000000000011100 ("
b10111111110000000000000000011100 J"
b0 L"
b0 M"
b0 G"
b10 K"
1)
#104000000000
0)
#106000000000
b11100 %
0."
b10111111110000000000000000011100 '
b10111111110000000000000000011100 =
b10111111110000000000000000011100 E
1$
0:
1F
0+"
12
b0 K"
1)
#108000000000
0)
#110000000000
b10100 >"
b10100 ="
b10100 V"
b10100 0"
b10100 U"
b1000 /"
b1000 N"
b1 ;"
0$
1:
b1001 9"
b1000 3"
b1000 Q"
b10100 @"
b10100 ?"
b10000000000000010100 :"
b100100000010000000000000010100 <"
0F
b100100000010000000000000010100 1
b100100000010000000000000010100 G
b100100000010000000000000010100 k
b100100000010000000000000010100 )"
b100100000010000000000000010100 *
b100100000010000000000000010100 -
b100100000010000000000000010100 >
b100100000010000000000000010100 W
b100100000010000000000000010100 j
b10 T
1R
1S
1)
#112000000000
0)
#114000000000
b0xxxxxxxxx %
0$
1:
b0 '
b0 =
b0 E
02
1o
b1 n
0F
b1 K"
b1 i
b100100000010000000000000010100 s
0R
0S
b0 T
1)
#116000000000
0)
#118000000000
1."
0o
b0 n
1-"
b0 m
b101111111100000000000000001 l
b101111111100000000000000001000 p
b1000 &"
b10111111110000000000000000100100 8"
b10111111110000000000000000100000 3
b10111111110000000000000000100000 H
b10111111110000000000000000100000 q
b10111111110000000000000000100000 {
b10111111110000000000000000100000 ("
b10111111110000000000000000100000 J"
b10100 L"
b10100 M"
b100100000010000000000000010100 G"
b10 K"
1)
#120000000000
0)
#122000000000
b100000 %
b10111111110000000000000000100000 '
b10111111110000000000000000100000 =
b10111111110000000000000000100000 E
1$
0:
0."
1F
0-"
12
b10100 2"
b10100 R"
b0 K"
1)
#124000000000
0)
#126000000000
b1001 /"
b1001 N"
b0 2"
b0 R"
0$
1:
b1001 3"
b1001 Q"
b10010000000000010100 :"
b100100000010010000000000010100 <"
0F
b100100000010010000000000010100 1
b100100000010010000000000010100 G
b100100000010010000000000010100 k
b100100000010010000000000010100 )"
b100100000010010000000000010100 *
b100100000010010000000000010100 -
b100100000010010000000000010100 >
b100100000010010000000000010100 W
b100100000010010000000000010100 j
b10 T
1R
1S
1)
#128000000000
0)
#130000000000
b0xxxxxxxxx %
b1 r
0$
1:
b0 '
b0 =
b0 E
02
1o
b10 n
0F
b1 K"
b11 i
b100100000010010000000000010100 s
0R
0S
b0 T
1)
#132000000000
0)
#134000000000
1."
0o
b0 n
1-"
b1 i
b1 m
b101111111100000000000000001001 p
b1000 &"
b10111111110000000000000000101000 8"
b10111111110000000000000000100100 3
b10111111110000000000000000100100 H
b10111111110000000000000000100100 q
b10111111110000000000000000100100 {
b10111111110000000000000000100100 ("
b10111111110000000000000000100100 J"
b100100000010010000000000010100 G"
b10 K"
1)
#136000000000
0)
#138000000000
b100100 %
b10111111110000000000000000100100 '
b10111111110000000000000000100100 =
b10111111110000000000000000100100 E
1$
0:
0."
1F
0-"
12
b10100 2"
b10100 R"
b0 K"
1)
#140000000000
0)
#142000000000
b10 /"
b10 N"
b0 2"
b0 R"
b1100 >"
b1100 ="
b1100 V"
b1100 0"
b1100 U"
0$
1:
b10 3"
b10 Q"
b1100 @"
b1100 ?"
b100000000000001100 :"
b100100000000100000000000001100 <"
0F
b100100000000100000000000001100 1
b100100000000100000000000001100 G
b100100000000100000000000001100 k
b100100000000100000000000001100 )"
b100100000000100000000000001100 *
b100100000000100000000000001100 -
b100100000000100000000000001100 >
b100100000000100000000000001100 W
b100100000000100000000000001100 j
b10 T
1R
1S
1)
#144000000000
0)
#146000000000
b0xxxxxxxxx %
0$
1:
b0 '
b0 =
b0 E
02
1o
b10 n
0F
b1 K"
b11 i
b100100000000100000000000001100 s
0R
0S
b0 T
1)
#148000000000
0)
#150000000000
1."
0o
b0 n
1-"
b1 i
b10 m
b101111111100000000000000001010 p
b1000 &"
b10111111110000000000000000101100 8"
b10111111110000000000000000101000 3
b10111111110000000000000000101000 H
b10111111110000000000000000101000 q
b10111111110000000000000000101000 {
b10111111110000000000000000101000 ("
b10111111110000000000000000101000 J"
b1100 L"
b1100 M"
b100100000000100000000000001100 G"
b10 K"
1)
#152000000000
0)
#154000000000
b101000 %
b10111111110000000000000000101000 '
b10111111110000000000000000101000 =
b10111111110000000000000000101000 E
1$
0:
0."
1F
0-"
12
b1100 2"
b1100 R"
b1100 #
b1100 0
b1100 6"
b1100 O"
b0 K"
1)
#156000000000
0)
#158000000000
b0 /"
b0 N"
b0 ;"
b0 2"
b0 R"
b0 >"
b0 ="
b0 V"
b0 0"
b0 U"
0$
1:
b0 9"
b0 3"
b0 Q"
b1000 @"
b1000 ?"
b1000 :"
b1000 <"
0F
b1000 1
b1000 G
b1000 k
b1000 )"
b1000 *
b1000 -
b1000 >
b1000 W
b1000 j
b10 T
1R
1S
1)
#160000000000
0)
#162000000000
b0xxxxxxxxx %
0$
1:
b0 '
b0 =
b0 E
02
1o
b10 n
0F
b1 K"
b11 i
b1000 s
0R
0S
b0 T
1)
#164000000000
0)
#166000000000
0o
b0 n
b1 i
b11 m
b101111111100000000000000001011 p
b1000 &"
b10111111110000000000000000110000 8"
b10111111110000000000000000101100 3
b10111111110000000000000000101100 H
b10111111110000000000000000101100 q
b10111111110000000000000000101100 {
b10111111110000000000000000101100 ("
b10111111110000000000000000101100 J"
1H"
b0 D"
b1000 G"
b10 K"
1)
#168000000000
0)
#170000000000
b101100 %
b10111111110000000000000000101100 '
b10111111110000000000000000101100 =
b10111111110000000000000000101100 E
1$
0:
1F
12
b0 K"
1)
#172000000000
0)
#174000000000
b11111111111111111111111111111010 ="
b11111111111111111111111111111010 V"
b1111111111111010 0"
b1111111111111010 U"
b1 ;"
b1110 >"
b10100 4"
b10100 S"
b10100 2"
b10100 R"
b1001 /"
b1001 N"
0$
1:
b100 9"
b1000 5"
b1000 P"
b1001 3"
b1001 Q"
b11111 7"
b11111 1"
b111010 @"
b1111111111111010 ?"
b1000010011111111111111010 :"
b10001000010011111111111111010 <"
0F
b10001000010011111111111111010 1
b10001000010011111111111111010 G
b10001000010011111111111111010 k
b10001000010011111111111111010 )"
b10001000010011111111111111010 *
b10001000010011111111111111010 -
b10001000010011111111111111010 >
b10001000010011111111111111010 W
b10001000010011111111111111010 j
b10 T
1R
1S
1)
#176000000000
0)
#178000000000
b0xxxxxxxxx %
0$
1:
b0 '
b0 =
b0 E
02
1o
b10 n
0F
b1 K"
b11 i
b10001000010011111111111111010 s
0R
0S
b0 T
1)
#180000000000
0)
#182000000000
b10001000010011111111111111010 G"
b10 K"
1)
